%!PS-Adobe-3.0 EPSF-3.0
%%BoundingBox: 0 0 504 144
%%LanguageLevel: 2
%%Creator: OriginLab Corporation
%%Title: (E:\Documents\Research\Papers\[2021] NativeGNN\cal22-gnn-storex\images\evaluation.eps)
%%CreationDate: Sun Sep 04 02:37:24 2022
%%EndComments

/OriginLab::PSL1 128 dict dup begin def
/Save0 save def
%%BeginResource: procset OriginLab::PSL1
/wd{1 index where{pop pop pop}{bind def}ifelse}bind def
/setcmykcolor{1 sub 4 1 roll 3{3 index add neg dup 0 lt{pop 0}if 3 1 roll}repeat setrgbcolor pop}wd
/selectfont{dup type/arraytype eq{exch findfont exch makefont setfont}{exch findfont exch scalefont setfont}ifelse}wd
/xshow{1 index length 0 le{}{currentpoint exch 3 index length 1 sub 0 exch 1 exch{dup 5 index exch 1 getinterval show 3 index exch get add 2 copy exch moveto}for pop pop}ifelse pop pop}wd
/grayimage/image load def/rgbtogray{cvx exec dup length 3 idiv 1 sub 0 exch 1 exch{dup 3 mul dup 3 index exch get 255 div .3 mul exch
 1 add dup 4 index exch get 255 div .59 mul exch 1 add 4 index exch get 255 div .11 mul add add
 255 mul dup 255 gt{255}if round cvi 2 index 3 1 roll put}for dup length 3 idiv 0 exch getinterval}bind def
/colorimage{0 setgray pop pop cvlit/rgbtogray cvx 2 packedarray cvx grayimage}wd
/bd{bind def}bind def/ld{load def}bd/ed{exch def}bd/xd{cvx def}bd
/np/newpath ld/a/arc ld/m/moveto ld/l/lineto ld/c/curveto ld/rm/rmoveto ld/rl/rlineto ld/rc/rcurveto ld/cp/closepath ld/cpt/currentpoint ld
/tr/translate ld/sc/scale ld/ro/rotate ld/t/transform ld/it/itransform ld/dt/dtransform ld/idt/idtransform ld
/mtx/matrix ld/cmtx/currentmatrix ld/dmtx/defaultmatrix ld/smtx/setmatrix ld/catmtx/concatmatrix ld
/sw/setlinewidth ld/scap/setlinecap ld/sj/setlinejoin ld/sm/setmiterlimit ld/sd/setdash ld/rgb/setrgbcolor ld/crgb/currentrgbcolor ld/cmyk/setcmykcolor ld/gs/gsave ld/gr/grestore ld
/st/stroke ld/fi/fill ld/eofi/eofill ld/cl/clip ld/eocl/eoclip ld
/glyphshowEmulation{matrix currentmatrix exch currentfont dup/FontMatrix get concat currentpoint translate
 dup/Metrics get 2 index get 0 4 2 roll gsave/CharProcs get exch 2 copy known not{pop/.notdef}if
 get exec fill grestore moveto setmatrix} bind def
/isWord2010 false def
currentsystemparams /PrinterName known{currentsystemparams /PrinterName get (Access Softek) eq {/isWord2010 true def} if } if
isWord2010{/glyphshowCommand/glyphshowEmulation ld}{/glyphshowCommand/glyphshow ld}ifelse
/df/definefont ld/ff/findfont ld/sf/setfont ld/scf/scalefont ld/self/selectfont ld/cf/currentfont ld
/s/show ld/xs/xshow ld/gls/glyphshowCommand ld/xgls{cpt 3 1 roll add exch 3 -1 roll gls m}bd
/xglsh{cpt 3 1 roll add exch 3 -1 roll glyphshowCommand m}bd
/cd/currentdict ld/i/index ld
/DrawBox{4 2 roll m 1 index 0 rl 0 exch rl neg 0 rl cp}bd
/plus.re { 6 { 3 index } repeat moveto 0 exch rlineto 0 rlineto pop pop neg 0 exch rlineto pop lineto closepath } def
/DrawBcc{4 2 roll m 2 copy 0 lt exch 0 lt xor{dup 0 exch rl exch 0 rl neg 0 exch rl}{exch dup 0 rl exch 0 exch rl neg 0 rl}ifelse cp}bd
/rectline{dup type/arraytype eq{dup length 0 exch 4 exch 4 sub{0 1 3{3 copy add get 4 1 roll pop}for pop 5 1 roll DrawBox}for pop}{DrawBox}ifelse}bd
/rectpath{dup type/arraytype eq{dup length 0 exch 4 exch 4 sub{0 1 3{3 copy add get 4 1 roll pop}for pop 5 1 roll DrawBcc}for pop}{DrawBcc}ifelse}bd
/pathproc{[{/m cvx}{/l cvx}{/c cvx}{/cp cvx}pathforall]cvx}bd
/L1img/image ld/L1idx[{0}
 {dup 7 and 3 1 roll -3 bitshift get exch 7 sub 1 mul bitshift  1 and}bind 1 index dup
 {dup 1 and 3 1 roll -1 bitshift get exch 1 sub 4 mul bitshift 15 and}bind 1 index dup dup
 {get}bind]def
/image{dup type/dicttype eq {dup/ImgCS get 0 get/Indexed eq}{false}ifelse
 {begin Width Height 8 ImageMatrix {rgb_string rgb_lookup
 cd/DataSource get dup type/filetype eq
 {mystring readstring pop}{exec}ifelse
 dup length 0 ne
 {L1idx BitsPerComponent get 0 1 Width 1 sub
 {3 copy exch exec exch 3 mul exch
 3 mul dup 5 index exch get exch 1 add dup 6 index exch get exch 1 add 6 index exch get
 7 index exch 4 index 2 add exch put 6 index exch 3 index 1 add exch put 5 index exch 2 index exch put pop
 }for pop pop pop }{pop pop pop ()}ifelse }false 3 colorimage end} {dup type/dicttype eq
 {{dup mark exch L1img pop pop}stopped{cleartomark begin Width Height BitsPerComponent ImageMatrix
 {cd/DataSource get dup type/filetype eq {mystring readstring pop}{exec}ifelse
 }false 3 colorimage end} if}{L1img}ifelse}ifelse
 }bd
/L1imgmask/imagemask ld/imagemask{dup type/dicttype eq
 {{dup mark exch L1imgmask pop pop}stopped {cleartomark begin Width Height polarityflag ImageMatrix
 {cd/DataSource get dup type/filetype eq {mystring readstring pop}{exec}ifelse
 }L1imgmask end}if}{L1imgmask}ifelse
 }bd
% Gradient function
/GradientStep 1 150 div def
/GradientStartRGB { /R1 exch def /G1 exch def /B1 exch def } def
/GradientEndRGB { /R2 exch def /G2 exch def /B2 exch def
/GradientSteps GradientLength GradientStep div def
/GradientRStep R2 R1 sub GradientSteps div def
/GradientGStep G2 G1 sub GradientSteps div def
/GradientBStep B2 B1 sub GradientSteps div def
} def
/GradientStepRGB { /R1 R1 GradientRStep add def
/G1 G1 GradientGStep add def
/B1 B1 GradientBStep add def
R1 G1 B1 setrgbcolor
} def
%%EndResource
/rectclip{np rectpath clip np}wd
/rectfill{gs np rectpath fi gr}wd
/rectstroke{gs np dup type/arraytype eq{dup length 6 eq}{false}ifelse{1 index type/arraytype eq{exch}{5 1 roll}ifelse rectline concat st}{rectline st}ifelse gr}wd
%%BeginResource: procset OriginLab::Image
/OriginLab::Image 32 dict dup begin
/BinProc{[currentfile mystring /readstring cvx /pop cvx] cvx bind}bd
/HexProc{[currentfile mystring /readhexstring cvx /pop cvx] cvx bind}bd
/Ascii85Proc{currentfile /ASCII85Decode filter}bd
/LZWA85{currentfile /ASCII85Decode filter /LZWDecode filter}bd
/ImgProcArray[/BinProc /HexProc /Ascii85Proc /LZWA85]def
/ImgDict{/ImgDict 16 dict def ImgDict dup begin /ImageType 1 def /MultipleDataSource false def end}bd
/L2Dec{{[1 0]}{[0 1]}ifelse}bd
/BegImg{ /Img_sv save def
 /ImgDir ed ImgProcArray exch get /ImgProc exch ld
 dup /polarityflag ed L2Dec /polarity ed /smoothflag ed
 tr /dx 2 index def /dy 1 index abs def sc
 string /mystring ed /bpc ed /ih ed /iw ed
 }bd
/EndImg {Img_sv restore}bd
/DoXImg{ /rgb_lookup ed /hival ed ImgDict dup begin
 [/Indexed /DeviceRGB hival rgb_lookup] /L1img where{pop/ImgCS ed}{setcolorspace}ifelse
 /rgb_string iw 3 mul string def
 /Width iw def
 /Height ih def
 /Decode [0 1 bpc{2 mul}repeat 1 sub] def
 /ImageMatrix
  ImgDir 0 eq{[iw 0 0 ih 0 0]}if
  ImgDir 1 eq{[iw neg 0 0 ih iw 0]}if
  ImgDir 2 eq{[iw 0 0 ih neg 0 ih]}if
  ImgDir 3 eq{[iw neg 0 0 ih neg iw ih]}if
  def
 /DataSource ImgProc def
 /BitsPerComponent bpc def
 /Interpolate smoothflag def
 end image}bd
/DoImg{ ImgDict dup begin
 [/DeviceRGB] /L1img where{pop/ImgCS ed}{setcolorspace}ifelse
 /rgb_string iw 3 mul string def
 /Width iw def
 /Height ih def
 /Decode [0 1 0 1 0 1] def
 /ImageMatrix
  ImgDir 0 eq{[iw 0 0 ih 0 0]}if
  ImgDir 1 eq{[iw neg 0 0 ih iw 0]}if
  ImgDir 2 eq{[iw 0 0 ih neg 0 ih]}if
  ImgDir 3 eq{[iw neg 0 0 ih neg iw ih]}if
  def
 /DataSource ImgProc def
 /BitsPerComponent 8 def
 /Interpolate smoothflag def
 end image}bd
end def
%%EndResource
/initmtx mtx cmtx def
%%BeginFont: /MC1_Arial
12 dict begin
/FontInfo 8 dict dup begin
/ItalicAngle 0 def
/UnderlinePosition -217.00 def
/UnderlineThickness 150.00 def
/StrikeoutPosition 530.00 def
/StrikeoutThickness 102.00 def
/isFixedPitch false def
end readonly def
/FontName /MC1_Arial def
/FontType 3 def
/FontMatrix [1 2048 div 0 0 1 2048 div 0 0] def
/FontBBox [-1361 -665 4096 2129] def
/Encoding 256 array def 0 1 255{Encoding exch/.notdef put}for
Encoding 32/s32 put
Encoding 46/s46 put
Encoding 49/s49 put
Encoding 52/s52 put
Encoding 54/s54 put
Encoding 56/s56 put
Encoding 69/s69 put
Encoding 70/s70 put
Encoding 71/s71 put
Encoding 77/s77 put
Encoding 78/s78 put
Encoding 82/s82 put
Encoding 83/s83 put
Encoding 84/s84 put
Encoding 97/s97 put
Encoding 98/s98 put
Encoding 99/s99 put
Encoding 100/s100 put
Encoding 101/s101 put
Encoding 102/s102 put
Encoding 103/s103 put
Encoding 104/s104 put
Encoding 105/s105 put
Encoding 108/s108 put
Encoding 109/s109 put
Encoding 110/s110 put
Encoding 111/s111 put
Encoding 112/s112 put
Encoding 114/s114 put
Encoding 115/s115 put
Encoding 116/s116 put
Encoding 117/s117 put
Encoding 120/s120 put
Encoding 121/s121 put
Encoding 122/s122 put
/BoundingBoxes 36 dict def
BoundingBoxes begin
/s32 [0 -434 569 1854] def
/s46 [0 -434 569 1854] def
/s49 [0 -434 1139 1854] def
/s52 [0 -434 1139 1854] def
/s54 [0 -434 1139 1854] def
/s56 [0 -434 1139 1854] def
/s69 [0 -434 1366 1854] def
/s70 [0 -434 1251 1854] def
/s71 [0 -434 1593 1854] def
/s77 [0 -434 1706 1854] def
/s78 [0 -434 1479 1854] def
/s82 [0 -434 1479 1854] def
/s83 [0 -434 1366 1854] def
/s84 [0 -434 1251 1854] def
/s97 [0 -434 1139 1854] def
/s98 [0 -434 1139 1854] def
/s99 [0 -434 1024 1854] def
/s100 [0 -434 1139 1854] def
/s101 [0 -434 1139 1854] def
/s102 [0 -434 569 1854] def
/s103 [0 -434 1139 1854] def
/s104 [0 -434 1139 1854] def
/s105 [0 -434 455 1854] def
/s108 [0 -434 455 1854] def
/s109 [0 -434 1706 1854] def
/s110 [0 -434 1139 1854] def
/s111 [0 -434 1139 1854] def
/s112 [0 -434 1139 1854] def
/s114 [0 -434 682 1854] def
/s115 [0 -434 1024 1854] def
/s116 [0 -434 569 1854] def
/s117 [0 -434 1139 1854] def
/s120 [0 -434 1024 1854] def
/s121 [0 -434 1024 1854] def
/s122 [0 -434 1024 1854] def
end
/Metrics 36 dict def
 Metrics begin
/s32 569 def
/s46 569 def
/s49 1139 def
/s52 1139 def
/s54 1139 def
/s56 1139 def
/s69 1366 def
/s70 1251 def
/s71 1593 def
/s77 1706 def
/s78 1479 def
/s82 1479 def
/s83 1366 def
/s84 1251 def
/s97 1139 def
/s98 1139 def
/s99 1024 def
/s100 1139 def
/s101 1139 def
/s102 569 def
/s103 1139 def
/s104 1139 def
/s105 455 def
/s108 455 def
/s109 1706 def
/s110 1139 def
/s111 1139 def
/s112 1139 def
/s114 682 def
/s115 1024 def
/s116 569 def
/s117 1139 def
/s120 1024 def
/s121 1024 def
/s122 1024 def
end
/CharProcs 36 dict def
CharProcs begin
/.notdef {} def
/s46 {
186 0 m
186 205 186 0 186 205 c
391 205 186 205 391 205 c
391 0 391 205 391 0 c
186 0 391 0 186 0 c
closepath } bind def
/s49 {
763 0 m
583 0 763 0 583 0 c
583 1147 583 0 583 1147 c
539.67 1105.67 482.83 1064.33 412.5 1023 c
342.17 981.67 279 950.67 223 930 c
223 1104 223 930 223 1104 c
323.67 1151.33 411.67 1208.67 487 1276 c
562.33 1343.33 615.67 1408.67 647 1472 c
763 1472 647 1472 763 1472 c
763 0 763 1472 763 0 c
closepath } bind def
/s52 {
662 0 m
662 351 662 0 662 351 c
26 351 662 351 26 351 c
26 516 26 351 26 516 c
695 1466 26 516 695 1466 c
842 1466 695 1466 842 1466 c
842 516 842 1466 842 516 c
1040 516 842 516 1040 516 c
1040 351 1040 516 1040 351 c
842 351 1040 351 842 351 c
842 0 842 351 842 0 c
662 0 842 0 662 0 c
closepath 662 516 m
662 1177 662 516 662 1177 c
203 516 662 1177 203 516 c
662 516 203 516 662 516 c
closepath } bind def
/s54 {
1019 1107 m
840 1093 1019 1107 840 1093 c
824 1163.67 801.33 1215 772 1247 c
723.33 1298.33 663.33 1324 592 1324 c
534.67 1324 484.33 1308 441 1276 c
384.33 1234.67 339.67 1174.33 307 1095 c
274.33 1015.67 257.33 902.67 256 756 c
299.33 822 352.33 871 415 903 c
477.67 935 543.33 951 612 951 c
732 951 834.17 906.83 918.5 818.5 c
1002.83 730.17 1045 616 1045 476 c
1045 384 1025.17 298.5 985.5 219.5 c
945.83 140.5 891.33 80 822 38 c
752.67 -4 674 -25 586 -25 c
436 -25 313.67 30.17 219 140.5 c
124.33 250.83 77 432.67 77 686 c
77 969.33 129.33 1175.33 234 1304 c
325.33 1416 448.33 1472 603 1472 c
718.33 1472 812.83 1439.67 886.5 1375 c
960.17 1310.33 1004.33 1221 1019 1107 c
closepath 284 475 m
284 413 297.17 353.67 323.5 297 c
349.83 240.33 386.67 197.17 434 167.5 c
481.33 137.83 531 123 583 123 c
659 123 724.33 153.67 779 215 c
833.67 276.33 861 359.67 861 465 c
861 566.33 834 646.17 780 704.5 c
726 762.83 658 792 576 792 c
494.67 792 425.67 762.83 369 704.5 c
312.33 646.17 284 569.67 284 475 c
closepath } bind def
/s56 {
362 795 m
287.33 822.33 232 861.33 196 912 c
160 962.67 142 1023.33 142 1094 c
142 1200.67 180.33 1290.33 257 1363 c
333.67 1435.67 435.67 1472 563 1472 c
691 1472 794 1434.83 872 1360.5 c
950 1286.17 989 1195.67 989 1089 c
989 1021 971.17 961.83 935.5 911.5 c
899.83 861.17 845.67 822.33 773 795 c
863 765.67 931.5 718.33 978.5 653 c
1025.5 587.67 1049 509.67 1049 419 c
1049 293.67 1004.67 188.33 916 103 c
827.33 17.67 710.67 -25 566 -25 c
421.33 -25 304.67 17.83 216 103.5 c
127.33 189.17 83 296 83 424 c
83 519.33 107.17 599.17 155.5 663.5 c
203.83 727.83 272.67 771.67 362 795 c
closepath 326 1100 m
326 1030.67 348.33 974 393 930 c
437.67 886 495.67 864 567 864 c
636.33 864 693.17 885.83 737.5 929.5 c
781.83 973.17 804 1026.67 804 1090 c
804 1156 781.17 1211.5 735.5 1256.5 c
689.83 1301.5 633 1324 565 1324 c
496.33 1324 439.33 1302 394 1258 c
348.67 1214 326 1161.33 326 1100 c
closepath 268 423 m
268 371.67 280.17 322 304.5 274 c
328.83 226 365 188.83 413 162.5 c
461 136.17 512.67 123 568 123 c
654 123 725 150.67 781 206 c
837 261.33 865 331.67 865 417 c
865 503.67 836.17 575.33 778.5 632 c
720.83 688.67 648.67 717 562 717 c
477.33 717 407.17 689 351.5 633 c
295.83 577 268 507 268 423 c
closepath } bind def
/s69 {
162 0 m
162 1466 162 0 162 1466 c
1222 1466 162 1466 1222 1466 c
1222 1293 1222 1466 1222 1293 c
356 1293 1222 1293 356 1293 c
356 844 356 1293 356 844 c
1167 844 356 844 1167 844 c
1167 672 1167 844 1167 672 c
356 672 1167 672 356 672 c
356 173 356 672 356 173 c
1256 173 356 173 1256 173 c
1256 0 1256 173 1256 0 c
162 0 1256 0 162 0 c
closepath } bind def
/s70 {
168 0 m
168 1466 168 0 168 1466 c
1157 1466 168 1466 1157 1466 c
1157 1293 1157 1466 1157 1293 c
362 1293 1157 1293 362 1293 c
362 839 362 1293 362 839 c
1050 839 362 839 1050 839 c
1050 666 1050 839 1050 666 c
362 666 1050 666 362 666 c
362 0 362 666 362 0 c
168 0 362 0 168 0 c
closepath } bind def
/s71 {
844 575 m
844 747 844 575 844 747 c
1465 748 844 747 1465 748 c
1465 204 1465 748 1465 204 c
1369.67 128 1271.33 70.83 1170 32.5 c
1068.67 -5.83 964.67 -25 858 -25 c
714 -25 583.17 5.83 465.5 67.5 c
347.83 129.17 259 218.33 199 335 c
139 451.67 109 582 109 726 c
109 868.67 138.83 1001.83 198.5 1125.5 c
258.17 1249.17 344 1341 456 1401 c
568 1461 697 1491 843 1491 c
949 1491 1044.83 1473.83 1130.5 1439.5 c
1216.17 1405.17 1283.33 1357.33 1332 1296 c
1380.67 1234.67 1417.67 1154.67 1443 1056 c
1268 1008 1443 1056 1268 1008 c
1246 1082.67 1218.67 1141.33 1186 1184 c
1153.33 1226.67 1106.67 1260.83 1046 1286.5 c
985.33 1312.17 918 1325 844 1325 c
755.33 1325 678.67 1311.5 614 1284.5 c
549.33 1257.5 497.17 1222 457.5 1178 c
417.83 1134 387 1085.67 365 1033 c
327.67 942.33 309 844 309 738 c
309 607.33 331.5 498 376.5 410 c
421.5 322 487 256.67 573 214 c
659 171.33 750.33 150 847 150 c
931 150 1013 166.17 1093 198.5 c
1173 230.83 1233.67 265.33 1275 302 c
1275 575 1275 302 1275 575 c
844 575 1275 575 844 575 c
closepath } bind def
/s77 {
152 0 m
152 1466 152 0 152 1466 c
444 1466 152 1466 444 1466 c
791 428 444 1466 791 428 c
823 331.33 846.33 259 861 211 c
877.67 264.33 903.67 342.67 939 446 c
1290 1466 939 446 1290 1466 c
1551 1466 1290 1466 1551 1466 c
1551 0 1551 1466 1551 0 c
1364 0 1551 0 1364 0 c
1364 1227 1364 0 1364 1227 c
938 0 1364 1227 938 0 c
763 0 938 0 763 0 c
339 1248 763 0 339 1248 c
339 0 339 1248 339 0 c
152 0 339 0 152 0 c
closepath } bind def
/s78 {
156 0 m
156 1466 156 0 156 1466 c
355 1466 156 1466 355 1466 c
1125 315 355 1466 1125 315 c
1125 1466 1125 315 1125 1466 c
1311 1466 1125 1466 1311 1466 c
1311 0 1311 1466 1311 0 c
1112 0 1311 0 1112 0 c
342 1152 1112 0 342 1152 c
342 0 342 1152 342 0 c
156 0 342 0 156 0 c
closepath } bind def
/s82 {
161 0 m
161 1466 161 0 161 1466 c
811 1466 161 1466 811 1466 c
941.67 1466 1041 1452.83 1109 1426.5 c
1177 1400.17 1231.33 1353.67 1272 1287 c
1312.67 1220.33 1333 1146.67 1333 1066 c
1333 962 1299.33 874.33 1232 803 c
1164.67 731.67 1060.67 686.33 920 667 c
971.33 642.33 1010.33 618 1037 594 c
1093.67 542 1147.33 477 1198 399 c
1453 0 1198 399 1453 0 c
1209 0 1453 0 1209 0 c
1015 305 1209 0 1015 305 c
958.33 393 911.67 460.33 875 507 c
838.33 553.67 805.5 586.33 776.5 605 c
747.5 623.67 718 636.67 688 644 c
666 648.67 630 651 580 651 c
355 651 580 651 355 651 c
355 0 355 651 355 0 c
161 0 355 0 161 0 c
closepath 355 819 m
772 819 355 819 772 819 c
860.67 819 930 828.17 980 846.5 c
1030 864.83 1068 894.17 1094 934.5 c
1120 974.83 1133 1018.67 1133 1066 c
1133 1135.33 1107.83 1192.33 1057.5 1237 c
1007.17 1281.67 927.67 1304 819 1304 c
355 1304 819 1304 355 1304 c
355 819 355 1304 355 819 c
closepath } bind def
/s83 {
92 471 m
275 487 92 471 275 487 c
283.67 413.67 303.83 353.5 335.5 306.5 c
367.17 259.5 416.33 221.5 483 192.5 c
549.67 163.5 624.67 149 708 149 c
782 149 847.33 160 904 182 c
960.67 204 1002.83 234.17 1030.5 272.5 c
1058.17 310.83 1072 352.67 1072 398 c
1072 444 1058.67 484.17 1032 518.5 c
1005.33 552.83 961.33 581.67 900 605 c
860.67 620.33 773.67 644.17 639 676.5 c
504.33 708.83 410 739.33 356 768 c
286 804.67 233.83 850.17 199.5 904.5 c
165.17 958.83 148 1019.67 148 1087 c
148 1161 169 1230.17 211 1294.5 c
253 1358.83 314.33 1407.67 395 1441 c
475.67 1474.33 565.33 1491 664 1491 c
772.67 1491 868.5 1473.5 951.5 1438.5 c
1034.5 1403.5 1098.33 1352 1143 1284 c
1187.67 1216 1211.67 1139 1215 1053 c
1029 1039 1215 1053 1029 1039 c
1019 1131.67 985.17 1201.67 927.5 1249 c
869.83 1296.33 784.67 1320 672 1320 c
554.67 1320 469.17 1298.5 415.5 1255.5 c
361.83 1212.5 335 1160.67 335 1100 c
335 1047.33 354 1004 392 970 c
429.33 936 526.83 901.17 684.5 865.5 c
842.17 829.83 950.33 798.67 1009 772 c
1094.33 732.67 1157.33 682.83 1198 622.5 c
1238.67 562.17 1259 492.67 1259 414 c
1259 336 1236.67 262.5 1192 193.5 c
1147.33 124.5 1083.17 70.83 999.5 32.5 c
915.83 -5.83 821.67 -25 717 -25 c
584.33 -25 473.17 -5.67 383.5 33 c
293.83 71.67 223.5 129.83 172.5 207.5 c
121.5 285.17 94.67 373 92 471 c
closepath } bind def
/s84 {
531 0 m
531 1293 531 0 531 1293 c
48 1293 531 1293 48 1293 c
48 1466 48 1293 48 1466 c
1210 1466 48 1466 1210 1466 c
1210 1293 1210 1466 1210 1293 c
725 1293 1210 1293 725 1293 c
725 0 725 1293 725 0 c
531 0 725 0 531 0 c
closepath } bind def
/s97 {
828 131 m
761.33 74.33 697.17 34.33 635.5 11 c
573.83 -12.33 507.67 -24 437 -24 c
320.33 -24 230.67 4.5 168 61.5 c
105.33 118.5 74 191.33 74 280 c
74 332 85.83 379.5 109.5 422.5 c
133.17 465.5 164.17 500 202.5 526 c
240.83 552 284 571.67 332 585 c
367.33 594.33 420.67 603.33 492 612 c
637.33 629.33 744.33 650 813 674 c
813.67 698.67 814 714.33 814 721 c
814 794.33 797 846 763 876 c
717 916.67 648.67 937 558 937 c
473.33 937 410.83 922.17 370.5 892.5 c
330.17 862.83 300.33 810.33 281 735 c
105 759 281 735 105 759 c
121 834.33 147.33 895.17 184 941.5 c
220.67 987.83 273.67 1023.5 343 1048.5 c
412.33 1073.5 492.67 1086 584 1086 c
674.67 1086 748.33 1075.33 805 1054 c
861.67 1032.67 903.33 1005.83 930 973.5 c
956.67 941.17 975.33 900.33 986 851 c
992 820.33 995 765 995 685 c
995 445 995 685 995 445 c
995 277.67 998.83 171.83 1006.5 127.5 c
1014.17 83.17 1029.33 40.67 1052 0 c
864 0 1052 0 864 0 c
845.33 37.33 833.33 81 828 131 c
closepath 813 533 m
747.67 506.33 649.67 483.67 519 465 c
445 454.33 392.67 442.33 362 429 c
331.33 415.67 307.67 396.17 291 370.5 c
274.33 344.83 266 316.33 266 285 c
266 237 284.17 197 320.5 165 c
356.83 133 410 117 480 117 c
549.33 117 611 132.17 665 162.5 c
719 192.83 758.67 234.33 784 287 c
803.33 327.67 813 387.67 813 467 c
813 533 813 467 813 533 c
closepath } bind def
/s98 {
301 0 m
134 0 301 0 134 0 c
134 1466 134 0 134 1466 c
314 1466 134 1466 314 1466 c
314 943 314 1466 314 943 c
390 1038.33 487 1086 605 1086 c
670.33 1086 732.17 1072.83 790.5 1046.5 c
848.83 1020.17 896.83 983.17 934.5 935.5 c
972.17 887.83 1001.67 830.33 1023 763 c
1044.33 695.67 1055 623.67 1055 547 c
1055 365 1010 224.33 920 125 c
830 25.67 722 -24 596 -24 c
470.67 -24 372.33 28.33 301 133 c
301 0 301 133 301 0 c
closepath 299 539 m
299 411.67 316.33 319.67 351 263 c
407.67 170.33 484.33 124 581 124 c
659.67 124 727.67 158.17 785 226.5 c
842.33 294.83 871 396.67 871 532 c
871 670.67 843.5 773 788.5 839 c
733.5 905 667 938 589 938 c
510.33 938 442.33 903.83 385 835.5 c
327.67 767.17 299 668.33 299 539 c
closepath } bind def
/s99 {
828 389 m
1005 366 828 389 1005 366 c
985.67 244 936.17 148.5 856.5 79.5 c
776.83 10.5 679 -24 563 -24 c
417.67 -24 300.83 23.5 212.5 118.5 c
124.17 213.5 80 349.67 80 527 c
80 641.67 99 742 137 828 c
175 914 232.83 978.5 310.5 1021.5 c
388.17 1064.5 472.67 1086 564 1086 c
679.33 1086 773.67 1056.83 847 998.5 c
920.33 940.17 967.33 857.33 988 750 c
813 723 988 750 813 723 c
796.33 794.33 766.83 848 724.5 884 c
682.17 920 631 938 571 938 c
480.33 938 406.67 905.5 350 840.5 c
293.33 775.5 265 672.67 265 532 c
265 389.33 292.33 285.67 347 221 c
401.67 156.33 473 124 561 124 c
631.67 124 690.67 145.67 738 189 c
785.33 232.33 815.33 299 828 389 c
closepath } bind def
/s100 {
824 0 m
824 134 824 0 824 134 c
756.67 28.67 657.67 -24 527 -24 c
442.33 -24 364.5 -0.67 293.5 46 c
222.5 92.67 167.5 157.83 128.5 241.5 c
89.5 325.17 70 421.33 70 530 c
70 636 87.67 732.17 123 818.5 c
158.33 904.83 211.33 971 282 1017 c
352.67 1063 431.67 1086 519 1086 c
583 1086 640 1072.5 690 1045.5 c
740 1018.5 780.67 983.33 812 940 c
812 1466 812 940 812 1466 c
991 1466 812 1466 991 1466 c
991 0 991 1466 991 0 c
824 0 991 0 824 0 c
closepath 255 530 m
255 394 283.67 292.33 341 225 c
398.33 157.67 466 124 544 124 c
622.67 124 689.5 156.17 744.5 220.5 c
799.5 284.83 827 383 827 515 c
827 660.33 799 767 743 835 c
687 903 618 937 536 937 c
456 937 389.17 904.33 335.5 839 c
281.83 773.67 255 670.67 255 530 c
closepath } bind def
/s101 {
862 342 m
1048 319 862 342 1048 319 c
1018.67 210.33 964.33 126 885 66 c
805.67 6 704.33 -24 581 -24 c
425.67 -24 302.5 23.83 211.5 119.5 c
120.5 215.17 75 349.33 75 522 c
75 700.67 121 839.33 213 938 c
305 1036.67 424.33 1086 571 1086 c
713 1086 829 1037.67 919 941 c
1009 844.33 1054 708.33 1054 533 c
1054 522.33 1053.67 506.33 1053 485 c
261 485 1053 485 261 485 c
267.67 368.33 300.67 279 360 217 c
419.33 155 493.33 124 582 124 c
648 124 704.33 141.33 751 176 c
797.67 210.67 834.67 266 862 342 c
closepath 271 633 m
864 633 271 633 864 633 c
856 722.33 833.33 789.33 796 834 c
738.67 903.33 664.33 938 573 938 c
490.33 938 420.83 910.33 364.5 855 c
308.17 799.67 277 725.67 271 633 c
closepath } bind def
/s102 {
178 0 m
178 922 178 0 178 922 c
19 922 178 922 19 922 c
19 1062 19 922 19 1062 c
178 1062 19 1062 178 1062 c
178 1175 178 1062 178 1175 c
178 1246.33 184.33 1299.33 197 1334 c
214.33 1380.67 244.83 1418.5 288.5 1447.5 c
332.17 1476.5 393.33 1491 472 1491 c
522.67 1491 578.67 1485 640 1473 c
613 1316 640 1473 613 1316 c
575.67 1322.67 540.33 1326 507 1326 c
452.33 1326 413.67 1314.33 391 1291 c
368.33 1267.67 357 1224 357 1160 c
357 1062 357 1160 357 1062 c
564 1062 357 1062 564 1062 c
564 922 564 1062 564 922 c
357 922 564 922 357 922 c
357 0 357 922 357 0 c
178 0 357 0 178 0 c
closepath } bind def
/s103 {
102 -88 m
277 -114 102 -88 277 -114 c
284.33 -168 304.67 -207.33 338 -232 c
382.67 -265.33 443.67 -282 521 -282 c
604.33 -282 668.67 -265.33 714 -232 c
759.33 -198.67 790 -152 806 -92 c
815.33 -55.33 819.67 21.67 819 139 c
740.33 46.33 642.33 0 525 0 c
379 0 266 52.67 186 158 c
106 263.33 66 389.67 66 537 c
66 638.33 84.33 731.83 121 817.5 c
157.67 903.17 210.83 969.33 280.5 1016 c
350.17 1062.67 432 1086 526 1086 c
651.33 1086 754.67 1035.33 836 934 c
836 1062 836 934 836 1062 c
1002 1062 836 1062 1002 1062 c
1002 144 1002 1062 1002 144 c
1002 -21.33 985.17 -138.5 951.5 -207.5 c
917.83 -276.5 864.5 -331 791.5 -371 c
718.5 -411 628.67 -431 522 -431 c
395.33 -431 293 -402.5 215 -345.5 c
137 -288.5 99.33 -202.67 102 -88 c
closepath 251 550 m
251 410.67 278.67 309 334 245 c
389.33 181 458.67 149 542 149 c
624.67 149 694 180.83 750 244.5 c
806 308.17 834 408 834 544 c
834 674 805.17 772 747.5 838 c
689.83 904 620.33 937 539 937 c
459 937 391 904.5 335 839.5 c
279 774.5 251 678 251 550 c
closepath } bind def
/s104 {
135 0 m
135 1466 135 0 135 1466 c
315 1466 135 1466 315 1466 c
315 940 315 1466 315 940 c
399 1037.33 505 1086 633 1086 c
711.67 1086 780 1070.5 838 1039.5 c
896 1008.5 937.5 965.67 962.5 911 c
987.5 856.33 1000 777 1000 673 c
1000 0 1000 673 1000 0 c
820 0 1000 0 820 0 c
820 673 820 0 820 673 c
820 763 800.5 828.5 761.5 869.5 c
722.5 910.5 667.33 931 596 931 c
542.67 931 492.5 917.17 445.5 889.5 c
398.5 861.83 365 824.33 345 777 c
325 729.67 315 664.33 315 581 c
315 0 315 581 315 0 c
135 0 315 0 135 0 c
closepath } bind def
/s105 {
136 1259 m
136 1466 136 1259 136 1466 c
316 1466 136 1466 316 1466 c
316 1259 316 1466 316 1259 c
136 1259 316 1259 136 1259 c
closepath 136 0 m
136 1062 136 0 136 1062 c
316 1062 136 1062 316 1062 c
316 0 316 1062 316 0 c
136 0 316 0 136 0 c
closepath } bind def
/s108 {
131 0 m
131 1466 131 0 131 1466 c
311 1466 131 1466 311 1466 c
311 0 311 1466 311 0 c
131 0 311 0 131 0 c
closepath } bind def
/s109 {
135 0 m
135 1062 135 0 135 1062 c
296 1062 135 1062 296 1062 c
296 913 296 1062 296 913 c
329.33 965 373.67 1006.83 429 1038.5 c
484.33 1070.17 547.33 1086 618 1086 c
696.67 1086 761.17 1069.67 811.5 1037 c
861.83 1004.33 897.33 958.67 918 900 c
1002 1024 1111.33 1086 1246 1086 c
1351.33 1086 1432.33 1056.83 1489 998.5 c
1545.67 940.17 1574 850.33 1574 729 c
1574 0 1574 729 1574 0 c
1395 0 1574 0 1395 0 c
1395 669 1395 0 1395 669 c
1395 741 1389.17 792.83 1377.5 824.5 c
1365.83 856.17 1344.67 881.67 1314 901 c
1283.33 920.33 1247.33 930 1206 930 c
1131.33 930 1069.33 905.17 1020 855.5 c
970.67 805.83 946 726.33 946 617 c
946 0 946 617 946 0 c
766 0 946 0 766 0 c
766 690 766 0 766 690 c
766 770 751.33 830 722 870 c
692.67 910 644.67 930 578 930 c
527.33 930 480.5 916.67 437.5 890 c
394.5 863.33 363.33 824.33 344 773 c
324.67 721.67 315 647.67 315 551 c
315 0 315 551 315 0 c
135 0 315 0 135 0 c
closepath } bind def
/s110 {
135 0 m
135 1062 135 0 135 1062 c
297 1062 135 1062 297 1062 c
297 911 297 1062 297 911 c
375 1027.67 487.67 1086 635 1086 c
699 1086 757.83 1074.5 811.5 1051.5 c
865.17 1028.5 905.33 998.33 932 961 c
958.67 923.67 977.33 879.33 988 828 c
994.67 794.67 998 736.33 998 653 c
998 0 998 653 998 0 c
818 0 998 0 818 0 c
818 646 818 0 818 646 c
818 719.33 811 774.17 797 810.5 c
783 846.83 758.17 875.83 722.5 897.5 c
686.83 919.17 645 930 597 930 c
520.33 930 454.17 905.67 398.5 857 c
342.83 808.33 315 716 315 580 c
315 0 315 580 315 0 c
135 0 315 0 135 0 c
closepath } bind def
/s111 {
68 531 m
68 727.67 122.67 873.33 232 968 c
323.33 1046.67 434.67 1086 566 1086 c
712 1086 831.33 1038.17 924 942.5 c
1016.67 846.83 1063 714.67 1063 546 c
1063 409.33 1042.5 301.83 1001.5 223.5 c
960.5 145.17 900.83 84.33 822.5 41 c
744.17 -2.33 658.67 -24 566 -24 c
417.33 -24 297.17 23.67 205.5 119 c
113.83 214.33 68 351.67 68 531 c
closepath 253 531 m
253 395 282.67 293.17 342 225.5 c
401.33 157.83 476 124 566 124 c
655.33 124 729.67 158 789 226 c
848.33 294 878 397.67 878 537 c
878 668.33 848.17 767.83 788.5 835.5 c
728.83 903.17 654.67 937 566 937 c
476 937 401.33 903.33 342 836 c
282.67 768.67 253 667 253 531 c
closepath } bind def
/s112 {
135 -407 m
135 1062 135 -407 135 1062 c
299 1062 135 1062 299 1062 c
299 924 299 1062 299 924 c
337.67 978 381.33 1018.5 430 1045.5 c
478.67 1072.5 537.67 1086 607 1086 c
697.67 1086 777.67 1062.67 847 1016 c
916.33 969.33 968.67 903.5 1004 818.5 c
1039.33 733.5 1057 640.33 1057 539 c
1057 430.33 1037.5 332.5 998.5 245.5 c
959.5 158.5 902.83 91.83 828.5 45.5 c
754.17 -0.83 676 -24 594 -24 c
534 -24 480.17 -11.33 432.5 14 c
384.83 39.33 345.67 71.33 315 110 c
315 -407 315 110 315 -407 c
135 -407 315 -407 135 -407 c
closepath 298 525 m
298 388.33 325.67 287.33 381 222 c
436.33 156.67 503.33 124 582 124 c
662 124 730.5 157.83 787.5 225.5 c
844.5 293.17 873 398 873 540 c
873 675.33 845.17 776.67 789.5 844 c
733.83 911.33 667.33 945 590 945 c
513.33 945 445.5 909.17 386.5 837.5 c
327.5 765.83 298 661.67 298 525 c
closepath } bind def
/s114 {
133 0 m
133 1062 133 0 133 1062 c
295 1062 133 1062 295 1062 c
295 901 295 1062 295 901 c
336.33 976.33 374.5 1026 409.5 1050 c
444.5 1074 483 1086 525 1086 c
585.67 1086 647.33 1066.67 710 1028 c
648 861 710 1028 648 861 c
604 887 560 900 516 900 c
476.67 900 441.33 888.17 410 864.5 c
378.67 840.83 356.33 808 343 766 c
323 702 313 632 313 556 c
313 0 313 556 313 0 c
133 0 313 0 133 0 c
closepath } bind def
/s115 {
63 317 m
241 345 63 317 241 345 c
251 273.67 278.83 219 324.5 181 c
370.17 143 434 124 516 124 c
598.67 124 660 140.83 700 174.5 c
740 208.17 760 247.67 760 293 c
760 333.67 742.33 365.67 707 389 c
682.33 405 621 425.33 523 450 c
391 483.33 299.5 512.17 248.5 536.5 c
197.5 560.83 158.83 594.5 132.5 637.5 c
106.17 680.5 93 728 93 780 c
93 827.33 103.83 871.17 125.5 911.5 c
147.17 951.83 176.67 985.33 214 1012 c
242 1032.67 280.17 1050.17 328.5 1064.5 c
376.83 1078.83 428.67 1086 484 1086 c
567.33 1086 640.5 1074 703.5 1050 c
766.5 1026 813 993.5 843 952.5 c
873 911.5 893.67 856.67 905 788 c
729 764 905 788 729 764 c
721 818.67 697.83 861.33 659.5 892 c
621.17 922.67 567 938 497 938 c
414.33 938 355.33 924.33 320 897 c
284.67 869.67 267 837.67 267 801 c
267 777.67 274.33 756.67 289 738 c
303.67 718.67 326.67 702.67 358 690 c
376 683.33 429 668 517 644 c
644.33 610 733.17 582.17 783.5 560.5 c
833.83 538.83 873.33 507.33 902 466 c
930.67 424.67 945 373.33 945 312 c
945 252 927.5 195.5 892.5 142.5 c
857.5 89.5 807 48.5 741 19.5 c
675 -9.5 600.33 -24 517 -24 c
379 -24 273.83 4.67 201.5 62 c
129.17 119.33 83 204.33 63 317 c
closepath } bind def
/s116 {
528 161 m
554 2 528 161 554 2 c
503.33 -8.67 458 -14 418 -14 c
352.67 -14 302 -3.67 266 17 c
230 37.67 204.67 64.83 190 98.5 c
175.33 132.17 168 203 168 311 c
168 922 168 311 168 922 c
36 922 168 922 36 922 c
36 1062 36 922 36 1062 c
168 1062 36 1062 168 1062 c
168 1325 168 1062 168 1325 c
347 1433 168 1325 347 1433 c
347 1062 347 1433 347 1062 c
528 1062 347 1062 528 1062 c
528 922 528 1062 528 922 c
347 922 528 922 347 922 c
347 301 347 922 347 301 c
347 249.67 350.17 216.67 356.5 202 c
362.83 187.33 373.17 175.67 387.5 167 c
401.83 158.33 422.33 154 449 154 c
469 154 495.33 156.33 528 161 c
closepath } bind def
/s117 {
831 0 m
831 156 831 0 831 156 c
748.33 36 636 -24 494 -24 c
431.33 -24 372.83 -12 318.5 12 c
264.17 36 223.83 66.17 197.5 102.5 c
171.17 138.83 152.67 183.33 142 236 c
134.67 271.33 131 327.33 131 404 c
131 1062 131 404 131 1062 c
311 1062 131 1062 311 1062 c
311 473 311 1062 311 473 c
311 379 314.67 315.67 322 283 c
333.33 235.67 357.33 198.5 394 171.5 c
430.67 144.5 476 131 530 131 c
584 131 634.67 144.83 682 172.5 c
729.33 200.17 762.83 237.83 782.5 285.5 c
802.17 333.17 812 402.33 812 493 c
812 1062 812 493 812 1062 c
992 1062 812 1062 992 1062 c
992 0 992 1062 992 0 c
831 0 992 0 831 0 c
closepath } bind def
/s120 {
15 0 m
403 552 15 0 403 552 c
44 1062 403 552 44 1062 c
269 1062 44 1062 269 1062 c
432 813 269 1062 432 813 c
462.67 765.67 487.33 726 506 694 c
535.33 738 562.33 777 587 811 c
766 1062 587 811 766 1062 c
981 1062 766 1062 981 1062 c
614 562 981 1062 614 562 c
1009 0 614 562 1009 0 c
788 0 1009 0 788 0 c
570 330 788 0 570 330 c
512 419 570 330 512 419 c
233 0 512 419 233 0 c
15 0 233 0 15 0 c
closepath } bind def
/s121 {
127 -409 m
107 -240 127 -409 107 -240 c
146.33 -250.67 180.67 -256 210 -256 c
250 -256 282 -249.33 306 -236 c
330 -222.67 349.67 -204 365 -180 c
376.33 -162 394.67 -117.33 420 -46 c
423.33 -36 428.67 -21.33 436 -2 c
33 1062 436 -2 33 1062 c
227 1062 33 1062 227 1062 c
448 447 227 1062 448 447 c
476.67 369 502.33 287 525 201 c
545.67 283.67 570.33 364.33 599 443 c
826 1062 599 443 826 1062 c
1006 1062 826 1062 1006 1062 c
602 -18 1006 1062 602 -18 c
558.67 -134.67 525 -215 501 -259 c
469 -318.33 432.33 -361.83 391 -389.5 c
349.67 -417.17 300.33 -431 243 -431 c
208.33 -431 169.67 -423.67 127 -409 c
closepath } bind def
/s122 {
40 0 m
40 146 40 0 40 146 c
716 922 40 146 716 922 c
639.33 918 571.67 916 513 916 c
80 916 513 916 80 916 c
80 1062 80 916 80 1062 c
948 1062 80 1062 948 1062 c
948 943 948 1062 948 943 c
373 269 948 943 373 269 c
262 146 373 269 262 146 c
342.67 152 418.33 155 489 155 c
980 155 489 155 980 155 c
980 0 980 155 980 0 c
40 0 980 0 40 0 c
closepath } bind def
end
/BuildGlyph {
 exch dup /Metrics get 2 index get 0 setcharwidth
/CharProcs get exch 2 copy known not{pop/.notdef}if get exec fill}bind def
/BuildChar {
1 index /Encoding get exch get
1 index /BuildGlyph get exec
} bind def
currentdict end /MC1_Arial exch definefont pop
%%EndFont
%%BeginFont: /MC2_Arial
12 dict begin
/FontInfo 8 dict dup begin
/ItalicAngle 0 def
/UnderlinePosition -217.00 def
/UnderlineThickness 150.00 def
/StrikeoutPosition 530.00 def
/StrikeoutThickness 102.00 def
/isFixedPitch false def
end readonly def
/FontName /MC2_Arial def
/FontType 3 def
/FontMatrix [1 2048 div 0 0 1 2048 div 0 0] def
/FontBBox [-1361 -665 4096 2129] def
/Encoding 256 array def 0 1 255{Encoding exch/.notdef put}for
Encoding 32/s32 put
Encoding 48/s48 put
Encoding 49/s49 put
Encoding 51/s51 put
Encoding 52/s52 put
Encoding 53/s53 put
Encoding 67/s67 put
Encoding 71/s71 put
Encoding 77/s77 put
Encoding 78/s78 put
Encoding 80/s80 put
Encoding 85/s85 put
Encoding 97/s97 put
Encoding 101/s101 put
Encoding 110/s110 put
Encoding 112/s112 put
Encoding 114/s114 put
Encoding 117/s117 put
Encoding 121/s121 put
/BoundingBoxes 20 dict def
BoundingBoxes begin
/s32 [0 -434 569 1854] def
/s48 [0 -434 1139 1854] def
/s49 [0 -434 1139 1854] def
/s51 [0 -434 1139 1854] def
/s52 [0 -434 1139 1854] def
/s53 [0 -434 1139 1854] def
/s67 [0 -434 1479 1854] def
/s71 [0 -434 1593 1854] def
/s77 [0 -434 1706 1854] def
/s78 [0 -434 1479 1854] def
/s80 [0 -434 1366 1854] def
/s85 [0 -434 1479 1854] def
/s97 [0 -434 1139 1854] def
/s101 [0 -434 1139 1854] def
/s110 [0 -434 1139 1854] def
/s112 [0 -434 1139 1854] def
/s114 [0 -434 682 1854] def
/s117 [0 -434 1139 1854] def
/s121 [0 -434 1024 1854] def
end
/Metrics 20 dict def
 Metrics begin
/s32 569 def
/s48 1139 def
/s49 1139 def
/s51 1139 def
/s52 1139 def
/s53 1139 def
/s67 1479 def
/s71 1593 def
/s77 1706 def
/s78 1479 def
/s80 1366 def
/s85 1479 def
/s97 1139 def
/s101 1139 def
/s110 1139 def
/s112 1139 def
/s114 682 def
/s117 1139 def
/s121 1024 def
end
/CharProcs 20 dict def
CharProcs begin
/.notdef {} def
/s48 {
85 723 m
85 896.33 102.83 1035.83 138.5 1141.5 c
174.17 1247.17 227.17 1328.67 297.5 1386 c
367.83 1443.33 456.33 1472 563 1472 c
641.67 1472 710.67 1456.17 770 1424.5 c
829.33 1392.83 878.33 1347.17 917 1287.5 c
955.67 1227.83 986 1155.17 1008 1069.5 c
1030 983.83 1041 868.33 1041 723 c
1041 551 1023.33 412.17 988 306.5 c
952.67 200.83 899.83 119.17 829.5 61.5 c
759.17 3.83 670.33 -25 563 -25 c
421.67 -25 310.67 25.67 230 127 c
133.33 249 85 447.67 85 723 c
closepath 270 723 m
270 482.33 298.17 322.17 354.5 242.5 c
410.83 162.83 480.33 123 563 123 c
645.67 123 715.17 163 771.5 243 c
827.83 323 856 483 856 723 c
856 964.33 827.83 1124.67 771.5 1204 c
715.17 1283.33 645 1323 561 1323 c
478.33 1323 412.33 1288 363 1218 c
301 1128.67 270 963.67 270 723 c
closepath } bind def
/s49 {
763 0 m
583 0 763 0 583 0 c
583 1147 583 0 583 1147 c
539.67 1105.67 482.83 1064.33 412.5 1023 c
342.17 981.67 279 950.67 223 930 c
223 1104 223 930 223 1104 c
323.67 1151.33 411.67 1208.67 487 1276 c
562.33 1343.33 615.67 1408.67 647 1472 c
763 1472 647 1472 763 1472 c
763 0 763 1472 763 0 c
closepath } bind def
/s51 {
86 387 m
266 411 86 387 266 411 c
286.67 309 321.83 235.5 371.5 190.5 c
421.17 145.5 481.67 123 553 123 c
637.67 123 709.17 152.33 767.5 211 c
825.83 269.67 855 342.33 855 429 c
855 511.67 828 579.83 774 633.5 c
720 687.17 651.33 714 568 714 c
534 714 491.67 707.33 441 694 c
461 852 441 694 461 852 c
473 850.67 482.67 850 490 850 c
566.67 850 635.67 870 697 910 c
758.33 950 789 1011.67 789 1095 c
789 1161 766.67 1215.67 722 1259 c
677.33 1302.33 619.67 1324 549 1324 c
479 1324 420.67 1302 374 1258 c
327.33 1214 297.33 1148 284 1060 c
104 1092 284 1060 104 1092 c
126 1212.67 176 1306.17 254 1372.5 c
332 1438.83 429 1472 545 1472 c
625 1472 698.67 1454.83 766 1420.5 c
833.33 1386.17 884.83 1339.33 920.5 1280 c
956.17 1220.67 974 1157.67 974 1091 c
974 1027.67 957 970 923 918 c
889 866 838.67 824.67 772 794 c
858.67 774 926 732.5 974 669.5 c
1022 606.5 1046 527.67 1046 433 c
1046 305 999.33 196.5 906 107.5 c
812.67 18.5 694.67 -26 552 -26 c
423.33 -26 316.5 12.33 231.5 89 c
146.5 165.67 98 265 86 387 c
closepath } bind def
/s52 {
662 0 m
662 351 662 0 662 351 c
26 351 662 351 26 351 c
26 516 26 351 26 516 c
695 1466 26 516 695 1466 c
842 1466 695 1466 842 1466 c
842 516 842 1466 842 516 c
1040 516 842 516 1040 516 c
1040 351 1040 516 1040 351 c
842 351 1040 351 842 351 c
842 0 842 351 842 0 c
662 0 842 0 662 0 c
closepath 662 516 m
662 1177 662 516 662 1177 c
203 516 662 1177 203 516 c
662 516 203 516 662 516 c
closepath } bind def
/s53 {
85 384 m
274 400 85 384 274 400 c
288 308 320.5 238.83 371.5 192.5 c
422.5 146.17 484 123 556 123 c
642.67 123 716 155.67 776 221 c
836 286.33 866 373 866 481 c
866 583.67 837.17 664.67 779.5 724 c
721.83 783.33 646.33 813 553 813 c
495 813 442.67 799.83 396 773.5 c
349.33 747.17 312.67 713 286 671 c
117 693 286 671 117 693 c
259 1446 117 693 259 1446 c
988 1446 259 1446 988 1446 c
988 1274 988 1446 988 1274 c
403 1274 988 1274 403 1274 c
324 880 403 1274 324 880 c
412 941.33 504.33 972 601 972 c
729 972 837 927.67 925 839 c
1013 750.33 1057 636.33 1057 497 c
1057 364.33 1018.33 249.67 941 153 c
847 34.33 718.67 -25 556 -25 c
422.67 -25 313.83 12.33 229.5 87 c
145.17 161.67 97 260.67 85 384 c
closepath } bind def
/s67 {
1204 514 m
1398 465 1204 514 1398 465 c
1357.33 305.67 1284.17 184.17 1178.5 100.5 c
1072.83 16.83 943.67 -25 791 -25 c
633 -25 504.5 7.17 405.5 71.5 c
306.5 135.83 231.17 229 179.5 351 c
127.83 473 102 604 102 744 c
102 896.67 131.17 1029.83 189.5 1143.5 c
247.83 1257.17 330.83 1343.5 438.5 1402.5 c
546.17 1461.5 664.67 1491 794 1491 c
940.67 1491 1064 1453.67 1164 1379 c
1264 1304.33 1333.67 1199.33 1373 1064 c
1182 1019 1373 1064 1182 1019 c
1148 1125.67 1098.67 1203.33 1034 1252 c
969.33 1300.67 888 1325 790 1325 c
677.33 1325 583.17 1298 507.5 1244 c
431.83 1190 378.67 1117.5 348 1026.5 c
317.33 935.5 302 841.67 302 745 c
302 620.33 320.17 511.5 356.5 418.5 c
392.83 325.5 449.33 256 526 210 c
602.67 164 685.67 141 775 141 c
883.67 141 975.67 172.33 1051 235 c
1126.33 297.67 1177.33 390.67 1204 514 c
closepath } bind def
/s71 {
844 575 m
844 747 844 575 844 747 c
1465 748 844 747 1465 748 c
1465 204 1465 748 1465 204 c
1369.67 128 1271.33 70.83 1170 32.5 c
1068.67 -5.83 964.67 -25 858 -25 c
714 -25 583.17 5.83 465.5 67.5 c
347.83 129.17 259 218.33 199 335 c
139 451.67 109 582 109 726 c
109 868.67 138.83 1001.83 198.5 1125.5 c
258.17 1249.17 344 1341 456 1401 c
568 1461 697 1491 843 1491 c
949 1491 1044.83 1473.83 1130.5 1439.5 c
1216.17 1405.17 1283.33 1357.33 1332 1296 c
1380.67 1234.67 1417.67 1154.67 1443 1056 c
1268 1008 1443 1056 1268 1008 c
1246 1082.67 1218.67 1141.33 1186 1184 c
1153.33 1226.67 1106.67 1260.83 1046 1286.5 c
985.33 1312.17 918 1325 844 1325 c
755.33 1325 678.67 1311.5 614 1284.5 c
549.33 1257.5 497.17 1222 457.5 1178 c
417.83 1134 387 1085.67 365 1033 c
327.67 942.33 309 844 309 738 c
309 607.33 331.5 498 376.5 410 c
421.5 322 487 256.67 573 214 c
659 171.33 750.33 150 847 150 c
931 150 1013 166.17 1093 198.5 c
1173 230.83 1233.67 265.33 1275 302 c
1275 575 1275 302 1275 575 c
844 575 1275 575 844 575 c
closepath } bind def
/s77 {
152 0 m
152 1466 152 0 152 1466 c
444 1466 152 1466 444 1466 c
791 428 444 1466 791 428 c
823 331.33 846.33 259 861 211 c
877.67 264.33 903.67 342.67 939 446 c
1290 1466 939 446 1290 1466 c
1551 1466 1290 1466 1551 1466 c
1551 0 1551 1466 1551 0 c
1364 0 1551 0 1364 0 c
1364 1227 1364 0 1364 1227 c
938 0 1364 1227 938 0 c
763 0 938 0 763 0 c
339 1248 763 0 339 1248 c
339 0 339 1248 339 0 c
152 0 339 0 152 0 c
closepath } bind def
/s78 {
156 0 m
156 1466 156 0 156 1466 c
355 1466 156 1466 355 1466 c
1125 315 355 1466 1125 315 c
1125 1466 1125 315 1125 1466 c
1311 1466 1125 1466 1311 1466 c
1311 0 1311 1466 1311 0 c
1112 0 1311 0 1112 0 c
342 1152 1112 0 342 1152 c
342 0 342 1152 342 0 c
156 0 342 0 156 0 c
closepath } bind def
/s80 {
158 0 m
158 1466 158 0 158 1466 c
711 1466 158 1466 711 1466 c
808.33 1466 882.67 1461.33 934 1452 c
1006 1440 1066.33 1417.17 1115 1383.5 c
1163.67 1349.83 1202.83 1302.67 1232.5 1242 c
1262.17 1181.33 1277 1114.67 1277 1042 c
1277 917.33 1237.33 811.83 1158 725.5 c
1078.67 639.17 935.33 596 728 596 c
352 596 728 596 352 596 c
352 0 352 596 352 0 c
158 0 352 0 158 0 c
closepath 352 769 m
731 769 352 769 731 769 c
856.33 769 945.33 792.33 998 839 c
1050.67 885.67 1077 951.33 1077 1036 c
1077 1097.33 1061.5 1149.83 1030.5 1193.5 c
999.5 1237.17 958.67 1266 908 1280 c
875.33 1288.67 815 1293 727 1293 c
352 1293 727 1293 352 1293 c
352 769 352 1293 352 769 c
closepath } bind def
/s85 {
1120 1466 m
1314 1466 1120 1466 1314 1466 c
1314 619 1314 1466 1314 619 c
1314 471.67 1297.33 354.67 1264 268 c
1230.67 181.33 1170.5 110.83 1083.5 56.5 c
996.5 2.17 882.33 -25 741 -25 c
603.67 -25 491.33 -1.33 404 46 c
316.67 93.33 254.33 161.83 217 251.5 c
179.67 341.17 161 463.67 161 619 c
161 1466 161 619 161 1466 c
355 1466 161 1466 355 1466 c
355 620 355 1466 355 620 c
355 492.67 366.83 398.83 390.5 338.5 c
414.17 278.17 454.83 231.67 512.5 199 c
570.17 166.33 640.67 150 724 150 c
866.67 150 968.33 182.33 1029 247 c
1089.67 311.67 1120 436 1120 620 c
1120 1466 1120 620 1120 1466 c
closepath } bind def
/s97 {
828 131 m
761.33 74.33 697.17 34.33 635.5 11 c
573.83 -12.33 507.67 -24 437 -24 c
320.33 -24 230.67 4.5 168 61.5 c
105.33 118.5 74 191.33 74 280 c
74 332 85.83 379.5 109.5 422.5 c
133.17 465.5 164.17 500 202.5 526 c
240.83 552 284 571.67 332 585 c
367.33 594.33 420.67 603.33 492 612 c
637.33 629.33 744.33 650 813 674 c
813.67 698.67 814 714.33 814 721 c
814 794.33 797 846 763 876 c
717 916.67 648.67 937 558 937 c
473.33 937 410.83 922.17 370.5 892.5 c
330.17 862.83 300.33 810.33 281 735 c
105 759 281 735 105 759 c
121 834.33 147.33 895.17 184 941.5 c
220.67 987.83 273.67 1023.5 343 1048.5 c
412.33 1073.5 492.67 1086 584 1086 c
674.67 1086 748.33 1075.33 805 1054 c
861.67 1032.67 903.33 1005.83 930 973.5 c
956.67 941.17 975.33 900.33 986 851 c
992 820.33 995 765 995 685 c
995 445 995 685 995 445 c
995 277.67 998.83 171.83 1006.5 127.5 c
1014.17 83.17 1029.33 40.67 1052 0 c
864 0 1052 0 864 0 c
845.33 37.33 833.33 81 828 131 c
closepath 813 533 m
747.67 506.33 649.67 483.67 519 465 c
445 454.33 392.67 442.33 362 429 c
331.33 415.67 307.67 396.17 291 370.5 c
274.33 344.83 266 316.33 266 285 c
266 237 284.17 197 320.5 165 c
356.83 133 410 117 480 117 c
549.33 117 611 132.17 665 162.5 c
719 192.83 758.67 234.33 784 287 c
803.33 327.67 813 387.67 813 467 c
813 533 813 467 813 533 c
closepath } bind def
/s101 {
862 342 m
1048 319 862 342 1048 319 c
1018.67 210.33 964.33 126 885 66 c
805.67 6 704.33 -24 581 -24 c
425.67 -24 302.5 23.83 211.5 119.5 c
120.5 215.17 75 349.33 75 522 c
75 700.67 121 839.33 213 938 c
305 1036.67 424.33 1086 571 1086 c
713 1086 829 1037.67 919 941 c
1009 844.33 1054 708.33 1054 533 c
1054 522.33 1053.67 506.33 1053 485 c
261 485 1053 485 261 485 c
267.67 368.33 300.67 279 360 217 c
419.33 155 493.33 124 582 124 c
648 124 704.33 141.33 751 176 c
797.67 210.67 834.67 266 862 342 c
closepath 271 633 m
864 633 271 633 864 633 c
856 722.33 833.33 789.33 796 834 c
738.67 903.33 664.33 938 573 938 c
490.33 938 420.83 910.33 364.5 855 c
308.17 799.67 277 725.67 271 633 c
closepath } bind def
/s110 {
135 0 m
135 1062 135 0 135 1062 c
297 1062 135 1062 297 1062 c
297 911 297 1062 297 911 c
375 1027.67 487.67 1086 635 1086 c
699 1086 757.83 1074.5 811.5 1051.5 c
865.17 1028.5 905.33 998.33 932 961 c
958.67 923.67 977.33 879.33 988 828 c
994.67 794.67 998 736.33 998 653 c
998 0 998 653 998 0 c
818 0 998 0 818 0 c
818 646 818 0 818 646 c
818 719.33 811 774.17 797 810.5 c
783 846.83 758.17 875.83 722.5 897.5 c
686.83 919.17 645 930 597 930 c
520.33 930 454.17 905.67 398.5 857 c
342.83 808.33 315 716 315 580 c
315 0 315 580 315 0 c
135 0 315 0 135 0 c
closepath } bind def
/s112 {
135 -407 m
135 1062 135 -407 135 1062 c
299 1062 135 1062 299 1062 c
299 924 299 1062 299 924 c
337.67 978 381.33 1018.5 430 1045.5 c
478.67 1072.5 537.67 1086 607 1086 c
697.67 1086 777.67 1062.67 847 1016 c
916.33 969.33 968.67 903.5 1004 818.5 c
1039.33 733.5 1057 640.33 1057 539 c
1057 430.33 1037.5 332.5 998.5 245.5 c
959.5 158.5 902.83 91.83 828.5 45.5 c
754.17 -0.83 676 -24 594 -24 c
534 -24 480.17 -11.33 432.5 14 c
384.83 39.33 345.67 71.33 315 110 c
315 -407 315 110 315 -407 c
135 -407 315 -407 135 -407 c
closepath 298 525 m
298 388.33 325.67 287.33 381 222 c
436.33 156.67 503.33 124 582 124 c
662 124 730.5 157.83 787.5 225.5 c
844.5 293.17 873 398 873 540 c
873 675.33 845.17 776.67 789.5 844 c
733.83 911.33 667.33 945 590 945 c
513.33 945 445.5 909.17 386.5 837.5 c
327.5 765.83 298 661.67 298 525 c
closepath } bind def
/s114 {
133 0 m
133 1062 133 0 133 1062 c
295 1062 133 1062 295 1062 c
295 901 295 1062 295 901 c
336.33 976.33 374.5 1026 409.5 1050 c
444.5 1074 483 1086 525 1086 c
585.67 1086 647.33 1066.67 710 1028 c
648 861 710 1028 648 861 c
604 887 560 900 516 900 c
476.67 900 441.33 888.17 410 864.5 c
378.67 840.83 356.33 808 343 766 c
323 702 313 632 313 556 c
313 0 313 556 313 0 c
133 0 313 0 133 0 c
closepath } bind def
/s117 {
831 0 m
831 156 831 0 831 156 c
748.33 36 636 -24 494 -24 c
431.33 -24 372.83 -12 318.5 12 c
264.17 36 223.83 66.17 197.5 102.5 c
171.17 138.83 152.67 183.33 142 236 c
134.67 271.33 131 327.33 131 404 c
131 1062 131 404 131 1062 c
311 1062 131 1062 311 1062 c
311 473 311 1062 311 473 c
311 379 314.67 315.67 322 283 c
333.33 235.67 357.33 198.5 394 171.5 c
430.67 144.5 476 131 530 131 c
584 131 634.67 144.83 682 172.5 c
729.33 200.17 762.83 237.83 782.5 285.5 c
802.17 333.17 812 402.33 812 493 c
812 1062 812 493 812 1062 c
992 1062 812 1062 992 1062 c
992 0 992 1062 992 0 c
831 0 992 0 831 0 c
closepath } bind def
/s121 {
127 -409 m
107 -240 127 -409 107 -240 c
146.33 -250.67 180.67 -256 210 -256 c
250 -256 282 -249.33 306 -236 c
330 -222.67 349.67 -204 365 -180 c
376.33 -162 394.67 -117.33 420 -46 c
423.33 -36 428.67 -21.33 436 -2 c
33 1062 436 -2 33 1062 c
227 1062 33 1062 227 1062 c
448 447 227 1062 448 447 c
476.67 369 502.33 287 525 201 c
545.67 283.67 570.33 364.33 599 443 c
826 1062 599 443 826 1062 c
1006 1062 826 1062 1006 1062 c
602 -18 1006 1062 602 -18 c
558.67 -134.67 525 -215 501 -259 c
469 -318.33 432.33 -361.83 391 -389.5 c
349.67 -417.17 300.33 -431 243 -431 c
208.33 -431 169.67 -423.67 127 -409 c
closepath } bind def
end
/BuildGlyph {
 exch dup /Metrics get 2 index get 0 setcharwidth
/CharProcs get exch 2 copy known not{pop/.notdef}if get exec fill}bind def
/BuildChar {
1 index /Encoding get exch get
1 index /BuildGlyph get exec
} bind def
currentdict end /MC2_Arial exch definefont pop
%%EndFont
%%BeginFont: /MC3_Times-New-Roman
12 dict begin
/FontInfo 8 dict dup begin
/ItalicAngle 0 def
/UnderlinePosition -223.00 def
/UnderlineThickness 100.00 def
/StrikeoutPosition 530.00 def
/StrikeoutThickness 102.00 def
/isFixedPitch false def
end readonly def
/FontName /MC3_Times-New-Roman def
/FontType 3 def
/FontMatrix [1 2048 div 0 0 1 2048 div 0 0] def
/FontBBox [-1164 -628 4190 2129] def
/Encoding 256 array def 0 1 255{Encoding exch/.notdef put}for
Encoding 32/s32 put
Encoding 40/s40 put
Encoding 41/s41 put
Encoding 46/s46 put
Encoding 69/s69 put
Encoding 79/s79 put
Encoding 80/s80 put
Encoding 97/s97 put
Encoding 98/s98 put
Encoding 99/s99 put
Encoding 100/s100 put
Encoding 101/s101 put
Encoding 102/s102 put
Encoding 103/s103 put
Encoding 105/s105 put
Encoding 108/s108 put
Encoding 109/s109 put
Encoding 110/s110 put
Encoding 111/s111 put
Encoding 112/s112 put
Encoding 114/s114 put
Encoding 115/s115 put
Encoding 116/s116 put
Encoding 117/s117 put
Encoding 118/s118 put
Encoding 121/s121 put
/BoundingBoxes 27 dict def
BoundingBoxes begin
/s32 [0 -443 512 1825] def
/s40 [0 -443 682 1825] def
/s41 [0 -443 682 1825] def
/s46 [0 -443 512 1825] def
/s69 [0 -443 1251 1825] def
/s79 [0 -443 1479 1825] def
/s80 [0 -443 1139 1825] def
/s97 [0 -443 909 1825] def
/s98 [-5 -443 1024 1825] def
/s99 [0 -443 909 1825] def
/s100 [0 -443 1024 1825] def
/s101 [0 -443 909 1825] def
/s102 [0 -443 682 1825] def
/s103 [0 -443 1024 1825] def
/s105 [0 -443 569 1825] def
/s108 [0 -443 569 1825] def
/s109 [0 -443 1593 1825] def
/s110 [0 -443 1024 1825] def
/s111 [0 -443 1024 1825] def
/s112 [-7 -443 1024 1825] def
/s114 [0 -443 682 1825] def
/s115 [0 -443 797 1825] def
/s116 [0 -443 569 1825] def
/s117 [0 -443 1024 1825] def
/s118 [0 -443 1024 1825] def
/s121 [0 -443 1024 1825] def
end
/Metrics 27 dict def
 Metrics begin
/s32 512 def
/s40 682 def
/s41 682 def
/s46 512 def
/s69 1251 def
/s79 1479 def
/s80 1139 def
/s97 909 def
/s98 1024 def
/s99 909 def
/s100 1024 def
/s101 909 def
/s102 682 def
/s103 1024 def
/s105 569 def
/s108 569 def
/s109 1593 def
/s110 1024 def
/s111 1024 def
/s112 1024 def
/s114 682 def
/s115 797 def
/s116 569 def
/s117 1024 def
/s118 1024 def
/s121 1024 def
end
/CharProcs 27 dict def
CharProcs begin
/.notdef {} def
/s40 {
636 -401 m
636 -438 636 -401 636 -438 c
535.33 -387.33 451.33 -328 384 -260 c
288 -163.33 214 -49.33 162 82 c
110 213.33 84 349.67 84 491 c
84 697.67 135 886.17 237 1056.5 c
339 1226.83 472 1348.67 636 1422 c
636 1380 636 1422 636 1380 c
554 1334.67 486.67 1272.67 434 1194 c
381.33 1115.33 342 1015.67 316 895 c
290 774.33 277 648.33 277 517 c
277 374.33 288 244.67 310 128 c
327.33 36 348.33 -37.83 373 -93.5 c
397.67 -149.17 430.83 -202.67 472.5 -254 c
514.17 -305.33 568.67 -354.33 636 -401 c
closepath } bind def
/s41 {
46 1380 m
46 1422 46 1380 46 1422 c
147.33 1372 231.67 1313 299 1245 c
394.33 1147.67 468 1033.5 520 902.5 c
572 771.5 598 635 598 493 c
598 286.33 547.17 97.83 445.5 -72.5 c
343.83 -242.83 210.67 -364.67 46 -438 c
46 -401 46 -438 46 -401 c
128 -355 195.5 -292.83 248.5 -214.5 c
301.5 -136.17 340.83 -36.5 366.5 84.5 c
392.17 205.5 405 331.67 405 463 c
405 605 394 734.67 372 852 c
355.33 944 334.5 1017.67 309.5 1073 c
284.5 1128.33 251.33 1181.67 210 1233 c
168.67 1284.33 114 1333.33 46 1380 c
closepath } bind def
/s46 {
256 194 m
287.33 194 313.67 183.17 335 161.5 c
356.33 139.83 367 113.67 367 83 c
367 52.33 356.17 26.17 334.5 4.5 c
312.83 -17.17 286.67 -28 256 -28 c
225.33 -28 199.17 -17.17 177.5 4.5 c
155.83 26.17 145 52.33 145 83 c
145 114.33 155.83 140.67 177.5 162 c
199.17 183.33 225.33 194 256 194 c
closepath } bind def
/s69 {
428 1282 m
428 746 428 1282 428 746 c
726 746 428 746 726 746 c
803.33 746 855 757.67 881 781 c
915.67 811.67 935 865.67 939 943 c
976 943 939 943 976 943 c
976 471 976 943 976 471 c
939 471 976 471 939 471 c
929.67 537 920.33 579.33 911 598 c
899 621.33 879.33 639.67 852 653 c
824.67 666.33 782.67 673 726 673 c
428 673 726 673 428 673 c
428 226 428 673 428 226 c
428 166 430.67 129.5 436 116.5 c
441.33 103.5 450.67 93.17 464 85.5 c
477.33 77.83 502.67 74 540 74 c
770 74 540 74 770 74 c
846.67 74 902.33 79.33 937 90 c
971.67 100.67 1005 121.67 1037 153 c
1078.33 194.33 1120.67 256.67 1164 340 c
1204 340 1164 340 1204 340 c
1087 0 1204 340 1087 0 c
42 0 1087 0 42 0 c
42 37 42 0 42 37 c
90 37 42 37 90 37 c
122 37 152.33 44.67 181 60 c
202.33 70.67 216.83 86.67 224.5 108 c
232.17 129.33 236 173 236 239 c
236 1120 236 239 236 1120 c
236 1206 227.33 1259 210 1279 c
186 1305.67 146 1319 90 1319 c
42 1319 90 1319 42 1319 c
42 1356 42 1319 42 1356 c
1087 1356 42 1356 1087 1356 c
1102 1059 1087 1356 1102 1059 c
1063 1059 1102 1059 1063 1059 c
1049 1130.33 1033.5 1179.33 1016.5 1206 c
999.5 1232.67 974.33 1253 941 1267 c
914.33 1277 867.33 1282 800 1282 c
428 1282 800 1282 428 1282 c
closepath } bind def
/s79 {
749 1387 m
925 1387 1077.5 1320.17 1206.5 1186.5 c
1335.5 1052.83 1400 886 1400 686 c
1400 480 1335 309 1205 173 c
1075 37 917.67 -31 733 -31 c
546.33 -31 389.5 35.33 262.5 168 c
135.5 300.67 72 472.33 72 683 c
72 898.33 145.33 1074 292 1210 c
419.33 1328 571.67 1387 749 1387 c
closepath 730 1314 m
608.67 1314 511.33 1269 438 1179 c
346.67 1067 301 903 301 687 c
301 465.67 348.33 295.33 443 176 c
515.67 85.33 611.67 40 731 40 c
858.33 40 963.5 89.67 1046.5 189 c
1129.5 288.33 1171 445 1171 659 c
1171 891 1125.33 1064 1034 1178 c
960.67 1268.67 859.33 1314 730 1314 c
closepath } bind def
/s80 {
420 635 m
420 240 420 635 420 240 c
420 154.67 429.33 101.67 448 81 c
473.33 51.67 511.67 37 563 37 c
615 37 563 37 615 37 c
615 0 615 37 615 0 c
34 0 615 0 34 0 c
34 37 34 0 34 37 c
85 37 34 37 85 37 c
142.33 37 183.33 55.67 208 93 c
221.33 113.67 228 162.67 228 240 c
228 1116 228 240 228 1116 c
228 1201.33 219 1254.33 201 1275 c
175 1304.33 136.33 1319 85 1319 c
34 1319 85 1319 34 1319 c
34 1356 34 1319 34 1356 c
531 1356 34 1356 531 1356 c
652.33 1356 748 1343.5 818 1318.5 c
888 1293.5 947 1251.33 995 1192 c
1043 1132.67 1067 1062.33 1067 981 c
1067 870.33 1030.5 780.33 957.5 711 c
884.5 641.67 781.33 607 648 607 c
615.33 607 580 609.33 542 614 c
504 618.67 463.33 625.67 420 635 c
closepath 420 692 m
455.33 685.33 486.67 680.33 514 677 c
541.33 673.67 564.67 672 584 672 c
653.33 672 713.17 698.83 763.5 752.5 c
813.83 806.17 839 875.67 839 961 c
839 1019.67 827 1074.17 803 1124.5 c
779 1174.83 745 1212.5 701 1237.5 c
657 1262.5 607 1275 551 1275 c
517 1275 473.33 1268.67 420 1256 c
420 692 420 1256 420 692 c
closepath } bind def
/s97 {
583 132 m
489 59.33 430 17.33 406 6 c
370 -10.67 331.67 -19 291 -19 c
227.67 -19 175.5 2.67 134.5 46 c
93.5 89.33 73 146.33 73 217 c
73 261.67 83 300.33 103 333 c
130.33 378.33 177.83 421 245.5 461 c
313.17 501 425.67 549.67 583 607 c
583 643 583 607 583 643 c
583 734.33 568.5 797 539.5 831 c
510.5 865 468.33 882 413 882 c
371 882 337.67 870.67 313 848 c
287.67 825.33 275 799.33 275 770 c
277 712 275 770 277 712 c
277 681.33 269.17 657.67 253.5 641 c
237.83 624.33 217.33 616 192 616 c
167.33 616 147.17 624.67 131.5 642 c
115.83 659.33 108 683 108 713 c
108 770.33 137.33 823 196 871 c
254.67 919 337 943 443 943 c
524.33 943 591 929.33 643 902 c
682.33 881.33 711.33 849 730 805 c
742 776.33 748 717.67 748 629 c
748 318 748 629 748 318 c
748 230.67 749.67 177.17 753 157.5 c
756.33 137.83 761.83 124.67 769.5 118 c
777.17 111.33 786 108 796 108 c
806.67 108 816 110.33 824 115 c
838 123.67 865 148 905 188 c
905 132 905 188 905 132 c
830.33 32 759 -18 691 -18 c
658.33 -18 632.33 -6.67 613 16 c
593.67 38.67 583.67 77.33 583 132 c
closepath 583 197 m
583 546 583 197 583 546 c
482.33 506 417.33 477.67 388 461 c
335.33 431.67 297.67 401 275 369 c
252.33 337 241 302 241 264 c
241 216 255.33 176.17 284 144.5 c
312.67 112.83 345.67 97 383 97 c
433.67 97 500.33 130.33 583 197 c
closepath } bind def
/s98 {
315 758 m
403.67 881.33 499.33 943 602 943 c
696 943 778 902.83 848 822.5 c
918 742.17 953 632.33 953 493 c
953 330.33 899 199.33 791 100 c
698.33 14.67 595 -28 481 -28 c
427.67 -28 373.5 -18.33 318.5 1 c
263.5 20.33 207.33 49.33 150 88 c
150 1037 150 88 150 1037 c
150 1141 147.5 1205 142.5 1229 c
137.5 1253 129.67 1269.33 119 1278 c
108.33 1286.67 95 1291 79 1291 c
60.33 1291 37 1285.67 9 1275 c
-5 1310 9 1275 -5 1310 c
270 1422 -5 1310 270 1422 c
315 1422 270 1422 315 1422 c
315 758 315 1422 315 758 c
closepath 315 694 m
315 146 315 694 315 146 c
349 112.67 384.17 87.5 420.5 70.5 c
456.83 53.5 494 45 532 45 c
592.67 45 649.17 78.33 701.5 145 c
753.83 211.67 780 308.67 780 436 c
780 553.33 753.83 643.5 701.5 706.5 c
649.17 769.5 589.67 801 523 801 c
487.67 801 452.33 792 417 774 c
390.33 760.67 356.33 734 315 694 c
closepath } bind def
/s99 {
842 348 m
817.33 227.33 769 134.5 697 69.5 c
625 4.5 545.33 -28 458 -28 c
354 -28 263.33 15.67 186 103 c
108.67 190.33 70 308.33 70 457 c
70 601 112.83 718 198.5 808 c
284.17 898 387 943 507 943 c
597 943 671 919.17 729 871.5 c
787 823.83 816 774.33 816 723 c
816 697.67 807.83 677.17 791.5 661.5 c
775.17 645.83 752.33 638 723 638 c
683.67 638 654 650.67 634 676 c
622.67 690 615.17 716.67 611.5 756 c
607.83 795.33 594.33 825.33 571 846 c
547.67 866 515.33 876 474 876 c
407.33 876 353.67 851.33 313 802 c
259 736.67 232 650.33 232 543 c
232 433.67 258.83 337.17 312.5 253.5 c
366.17 169.83 438.67 128 530 128 c
595.33 128 654 150.33 706 195 c
742.67 225.67 778.33 281.33 813 362 c
842 348 813 362 842 348 c
closepath } bind def
/s100 {
711 103 m
666.33 56.33 622.67 22.83 580 2.5 c
537.33 -17.83 491.33 -28 442 -28 c
342 -28 254.67 13.83 180 97.5 c
105.33 181.17 68 288.67 68 420 c
68 551.33 109.33 671.5 192 780.5 c
274.67 889.5 381 944 511 944 c
591.67 944 658.33 918.33 711 867 c
711 1036 711 867 711 1036 c
711 1140.67 708.5 1205 703.5 1229 c
698.5 1253 690.67 1269.33 680 1278 c
669.33 1286.67 656 1291 640 1291 c
622.67 1291 599.67 1285.67 571 1275 c
558 1310 571 1275 558 1310 c
831 1422 558 1310 831 1422 c
876 1422 831 1422 876 1422 c
876 363 876 1422 876 363 c
876 255.67 878.5 190.17 883.5 166.5 c
888.5 142.83 896.5 126.33 907.5 117 c
918.5 107.67 931.33 103 946 103 c
964 103 988 108.67 1018 120 c
1029 85 1018 120 1029 85 c
757 -28 1029 85 757 -28 c
711 -28 757 -28 711 -28 c
711 103 711 -28 711 103 c
closepath 711 173 m
711 645 711 173 711 645 c
707 690.33 695 731.67 675 769 c
655 806.33 628.5 834.5 595.5 853.5 c
562.5 872.5 530.33 882 499 882 c
440.33 882 388 855.67 342 803 c
281.33 733.67 251 632.33 251 499 c
251 364.33 280.33 261.17 339 189.5 c
397.67 117.83 463 82 535 82 c
595.67 82 654.33 112.33 711 173 c
closepath } bind def
/s101 {
218 571 m
217.33 435 250.33 328.33 317 251 c
383.67 173.67 462 135 552 135 c
612 135 664.17 151.5 708.5 184.5 c
752.83 217.5 790 274 820 354 c
851 334 820 354 851 334 c
837 242.67 796.33 159.5 729 84.5 c
661.67 9.5 577.33 -28 476 -28 c
366 -28 271.83 14.83 193.5 100.5 c
115.17 186.17 76 301.33 76 446 c
76 602.67 116.17 724.83 196.5 812.5 c
276.83 900.17 377.67 944 499 944 c
601.67 944 686 910.17 752 842.5 c
818 774.83 851 684.33 851 571 c
218 571 851 571 218 571 c
closepath 218 629 m
642 629 218 629 642 629 c
638.67 687.67 631.67 729 621 753 c
604.33 790.33 579.5 819.67 546.5 841 c
513.5 862.33 479 873 443 873 c
387.67 873 338.17 851.5 294.5 808.5 c
250.83 765.5 225.33 705.67 218 629 c
closepath } bind def
/s102 {
422 844 m
422 242 422 844 422 242 c
422 156.67 431.33 102.67 450 80 c
474.67 50.67 507.67 36 549 36 c
632 36 549 36 632 36 c
632 0 632 36 632 0 c
85 0 632 0 85 0 c
85 36 85 0 85 36 c
126 36 85 36 126 36 c
152.67 36 177 42.67 199 56 c
221 69.33 236.17 87.33 244.5 110 c
252.83 132.67 257 176.67 257 242 c
257 844 257 242 257 844 c
79 844 257 844 79 844 c
79 916 79 844 79 916 c
257 916 79 916 257 916 c
257 976 257 916 257 976 c
257 1067.33 271.67 1144.67 301 1208 c
330.33 1271.33 375.17 1322.5 435.5 1361.5 c
495.83 1400.5 563.67 1420 639 1420 c
709 1420 773.33 1397.33 832 1352 c
870.67 1322 890 1288.33 890 1251 c
890 1231 881.33 1212.17 864 1194.5 c
846.67 1176.83 828 1168 808 1168 c
792.67 1168 776.5 1173.5 759.5 1184.5 c
742.5 1195.5 721.67 1219.17 697 1255.5 c
672.33 1291.83 649.67 1316.33 629 1329 c
608.33 1341.67 585.33 1348 560 1348 c
529.33 1348 503.33 1339.83 482 1323.5 c
460.67 1307.17 445.33 1281.83 436 1247.5 c
426.67 1213.17 422 1124.67 422 982 c
422 916 422 982 422 916 c
658 916 422 916 658 916 c
658 844 658 916 658 844 c
422 844 658 844 422 844 c
closepath } bind def
/s103 {
309 334 m
253 361.33 210 399.5 180 448.5 c
150 497.5 135 551.67 135 611 c
135 701.67 169.17 779.67 237.5 845 c
305.83 910.33 393.33 943 500 943 c
587.33 943 663 921.67 727 879 c
921 879 727 879 921 879 c
949.67 879 966.33 878.17 971 876.5 c
975.67 874.83 979 872 981 868 c
985 862 987 851.33 987 836 c
987 818.67 985.33 806.67 982 800 c
980 796.67 976.5 794 971.5 792 c
966.5 790 949.67 789 921 789 c
802 789 921 789 802 789 c
839.33 741 858 679.67 858 605 c
858 519.67 825.33 446.67 760 386 c
694.67 325.33 607 295 497 295 c
451.67 295 405.33 301.67 358 315 c
328.67 289.67 308.83 267.5 298.5 248.5 c
288.17 229.5 283 213.33 283 200 c
283 188.67 288.5 177.67 299.5 167 c
310.5 156.33 332 148.67 364 144 c
382.67 141.33 429.33 139 504 137 c
641.33 133.67 730.33 129 771 123 c
833 114.33 882.5 91.33 919.5 54 c
956.5 16.67 975 -29.33 975 -84 c
975 -159.33 939.67 -230 869 -296 c
765 -393.33 629.33 -442 462 -442 c
333.33 -442 224.67 -413 136 -355 c
86 -321.67 61 -287 61 -251 c
61 -235 64.67 -219 72 -203 c
83.33 -178.33 106.67 -144 142 -100 c
146.67 -94 180.67 -58 244 8 c
209.33 28.67 184.83 47.17 170.5 63.5 c
156.17 79.83 149 98.33 149 119 c
149 142.33 158.5 169.67 177.5 201 c
196.5 232.33 240.33 276.67 309 334 c
closepath 483 895 m
433.67 895 392.33 875.33 359 836 c
325.67 796.67 309 736.33 309 655 c
309 549.67 331.67 468 377 410 c
411.67 366 455.67 344 509 344 c
559.67 344 601.33 363 634 401 c
666.67 439 683 498.67 683 580 c
683 686 660 769 614 829 c
580 873 536.33 895 483 895 c
closepath 299 0 m
267.67 -34 244 -65.67 228 -95 c
212 -124.33 204 -151.33 204 -176 c
204 -208 223.33 -236 262 -260 c
328.67 -301.33 425 -322 551 -322 c
671 -322 759.5 -300.83 816.5 -258.5 c
873.5 -216.17 902 -171 902 -123 c
902 -88.33 885 -63.67 851 -49 c
816.33 -34.33 747.67 -25.67 645 -23 c
495 -19 379.67 -11.33 299 0 c
closepath } bind def
/s105 {
297 1422 m
325 1422 348.83 1412.17 368.5 1392.5 c
388.17 1372.83 398 1349 398 1321 c
398 1293 388.17 1269 368.5 1249 c
348.83 1229 325 1219 297 1219 c
269 1219 245 1229 225 1249 c
205 1269 195 1293 195 1321 c
195 1349 204.83 1372.83 224.5 1392.5 c
244.17 1412.17 268.33 1422 297 1422 c
closepath 380 943 m
380 207 380 943 380 207 c
380 149.67 384.17 111.5 392.5 92.5 c
400.83 73.5 413.17 59.33 429.5 50 c
445.83 40.67 475.67 36 519 36 c
519 0 519 36 519 0 c
74 0 519 0 74 0 c
74 36 74 0 74 36 c
118.67 36 148.67 40.33 164 49 c
179.33 57.67 191.5 72 200.5 92 c
209.5 112 214 150.33 214 207 c
214 560 214 207 214 560 c
214 659.33 211 723.67 205 753 c
200.33 774.33 193 789.17 183 797.5 c
173 805.83 159.33 810 142 810 c
123.33 810 100.67 805 74 795 c
60 831 74 795 60 831 c
336 943 60 831 336 943 c
380 943 336 943 380 943 c
closepath } bind def
/s108 {
379 1422 m
379 207 379 1422 379 207 c
379 149.67 383.17 111.67 391.5 93 c
399.83 74.33 412.67 60.17 430 50.5 c
447.33 40.83 479.67 36 527 36 c
527 0 527 36 527 0 c
78 0 527 0 78 0 c
78 36 78 0 78 36 c
120 36 148.67 40.33 164 49 c
179.33 57.67 191.33 72 200 92 c
208.67 112 213 150.33 213 207 c
213 1039 213 207 213 1039 c
213 1142.33 210.67 1205.83 206 1229.5 c
201.33 1253.17 193.83 1269.33 183.5 1278 c
173.17 1286.67 160 1291 144 1291 c
126.67 1291 104.67 1285.67 78 1275 c
61 1310 78 1275 61 1310 c
334 1422 61 1310 334 1422 c
379 1422 334 1422 379 1422 c
closepath } bind def
/s109 {
336 748 m
402.67 814.67 442 853 454 863 c
484 888.33 516.33 908 551 922 c
585.67 936 620 943 654 943 c
711.33 943 760.67 926.33 802 893 c
843.33 859.67 871 811.33 885 748 c
953.67 828 1011.67 880.5 1059 905.5 c
1106.33 930.5 1155 943 1205 943 c
1253.67 943 1296.83 930.5 1334.5 905.5 c
1372.17 880.5 1402 839.67 1424 783 c
1438.67 744.33 1446 683.67 1446 601 c
1446 207 1446 601 1446 207 c
1446 149.67 1450.33 110.33 1459 89 c
1465.67 74.33 1478 61.83 1496 51.5 c
1514 41.17 1543.33 36 1584 36 c
1584 0 1584 36 1584 0 c
1132 0 1584 0 1132 0 c
1132 36 1132 0 1132 36 c
1151 36 1132 36 1151 36 c
1190.33 36 1221 43.67 1243 59 c
1258.33 69.67 1269.33 86.67 1276 110 c
1278.67 121.33 1280 153.67 1280 207 c
1280 601 1280 207 1280 601 c
1280 675.67 1271 728.33 1253 759 c
1227 801.67 1185.33 823 1128 823 c
1092.67 823 1057.17 814.17 1021.5 796.5 c
985.83 778.83 942.67 746 892 698 c
890 687 892 698 890 687 c
892 644 890 687 892 644 c
892 207 892 644 892 207 c
892 144.33 895.5 105.33 902.5 90 c
909.5 74.67 922.67 61.83 942 51.5 c
961.33 41.17 994.33 36 1041 36 c
1041 0 1041 36 1041 0 c
578 0 1041 0 578 0 c
578 36 578 0 578 36 c
628.67 36 663.5 42 682.5 54 c
701.5 66 714.67 84 722 108 c
725.33 119.33 727 152.33 727 207 c
727 601 727 207 727 601 c
727 675.67 716 729.33 694 762 c
664.67 804.67 623.67 826 571 826 c
535 826 499.33 816.33 464 797 c
408.67 767.67 366 734.67 336 698 c
336 207 336 698 336 207 c
336 147 340.17 108 348.5 90 c
356.83 72 369.17 58.5 385.5 49.5 c
401.83 40.5 435 36 485 36 c
485 0 485 36 485 0 c
32 0 485 0 32 0 c
32 36 32 0 32 36 c
74 36 103.33 40.5 120 49.5 c
136.67 58.5 149.33 72.83 158 92.5 c
166.67 112.17 171 150.33 171 207 c
171 557 171 207 171 557 c
171 657.67 168 722.67 162 752 c
157.33 774 150 789.17 140 797.5 c
130 805.83 116.33 810 99 810 c
80.33 810 58 805 32 795 c
17 831 32 795 17 831 c
293 943 17 831 293 943 c
336 943 293 943 336 943 c
336 748 336 943 336 748 c
closepath } bind def
/s110 {
331 749 m
438.33 878.33 540.67 943 638 943 c
688 943 731 930.5 767 905.5 c
803 880.5 831.67 839.33 853 782 c
867.67 742 875 680.67 875 598 c
875 207 875 598 875 207 c
875 149 879.67 109.67 889 89 c
896.33 72.33 908.17 59.33 924.5 50 c
940.83 40.67 971 36 1015 36 c
1015 0 1015 36 1015 0 c
562 0 1015 0 562 0 c
562 36 562 0 562 36 c
581 36 562 36 581 36 c
623.67 36 653.5 42.5 670.5 55.5 c
687.5 68.5 699.33 87.67 706 113 c
708.67 123 710 154.33 710 207 c
710 582 710 207 710 582 c
710 665.33 699.17 725.83 677.5 763.5 c
655.83 801.17 619.33 820 568 820 c
488.67 820 409.67 776.67 331 690 c
331 207 331 690 331 207 c
331 145 334.67 106.67 342 92 c
351.33 72.67 364.17 58.5 380.5 49.5 c
396.83 40.5 430 36 480 36 c
480 0 480 36 480 0 c
27 0 480 0 27 0 c
27 36 27 0 27 36 c
47 36 27 36 47 36 c
93.67 36 125.17 47.83 141.5 71.5 c
157.83 95.17 166 140.33 166 207 c
166 547 166 207 166 547 c
166 657 163.5 724 158.5 748 c
153.5 772 145.83 788.33 135.5 797 c
125.17 805.67 111.33 810 94 810 c
75.33 810 53 805 27 795 c
12 831 27 795 12 831 c
288 943 12 831 288 943 c
331 943 288 943 331 943 c
331 749 331 943 331 749 c
closepath } bind def
/s111 {
512 943 m
650.67 943 762 890.33 846 785 c
917.33 695 953 591.67 953 475 c
953 393 933.33 310 894 226 c
854.67 142 800.5 78.67 731.5 36 c
662.5 -6.67 585.67 -28 501 -28 c
363 -28 253.33 27 172 137 c
103.33 229.67 69 333.67 69 449 c
69 533 89.83 616.5 131.5 699.5 c
173.17 782.5 228 843.83 296 883.5 c
364 923.17 436 943 512 943 c
closepath 481 878 m
445.67 878 410.17 867.5 374.5 846.5 c
338.83 825.5 310 788.67 288 736 c
266 683.33 255 615.67 255 533 c
255 399.67 281.5 284.67 334.5 188 c
387.5 91.33 457.33 43 544 43 c
608.67 43 662 69.67 704 123 c
746 176.33 767 268 767 398 c
767 560.67 732 688.67 662 782 c
614.67 846 554.33 878 481 878 c
closepath } bind def
/s112 {
-2 825 m
280 939 -2 825 280 939 c
318 939 280 939 318 939 c
318 725 318 939 318 725 c
365.33 805.67 412.83 862.17 460.5 894.5 c
508.17 926.83 558.33 943 611 943 c
703 943 779.67 907 841 835 c
916.33 747 954 632.33 954 491 c
954 333 908.67 202.33 818 99 c
743.33 14.33 649.33 -28 536 -28 c
486.67 -28 444 -21 408 -7 c
381.33 3 351.33 23 318 53 c
318 -226 318 53 318 -226 c
318 -288.67 321.83 -328.5 329.5 -345.5 c
337.17 -362.5 350.5 -376 369.5 -386 c
388.5 -396 423 -401 473 -401 c
473 -438 473 -401 473 -438 c
-7 -438 473 -438 -7 -438 c
-7 -401 -7 -438 -7 -401 c
18 -401 -7 -401 18 -401 c
54.67 -401.67 86 -394.67 112 -380 c
124.67 -372.67 134.5 -360.83 141.5 -344.5 c
148.5 -328.17 152 -286.67 152 -220 c
152 646 152 -220 152 646 c
152 705.33 149.33 743 144 759 c
138.67 775 130.17 787 118.5 795 c
106.83 803 91 807 71 807 c
55 807 34.67 802.33 10 793 c
-2 825 10 793 -2 825 c
closepath 318 666 m
318 324 318 666 318 324 c
318 250 321 201.33 327 178 c
336.33 139.33 359.17 105.33 395.5 76 c
431.83 46.67 477.67 32 533 32 c
599.67 32 653.67 58 695 110 c
749 178 776 273.67 776 397 c
776 537 745.33 644.67 684 720 c
641.33 772 590.67 798 532 798 c
500 798 468.33 790 437 774 c
413 762 373.33 726 318 666 c
closepath } bind def
/s114 {
332 943 m
332 737 332 943 332 737 c
408.67 874.33 487.33 943 568 943 c
604.67 943 635 931.83 659 909.5 c
683 887.17 695 861.33 695 832 c
695 806 686.33 784 669 766 c
651.67 748 631 739 607 739 c
583.67 739 557.5 750.5 528.5 773.5 c
499.5 796.5 478 808 464 808 c
452 808 439 801.33 425 788 c
395 760.67 364 715.67 332 653 c
332 214 332 653 332 214 c
332 163.33 338.33 125 351 99 c
359.67 81 375 66 397 54 c
419 42 450.67 36 492 36 c
492 0 492 36 492 0 c
23 0 492 0 23 0 c
23 36 23 0 23 36 c
69.67 36 104.33 43.33 127 58 c
143.67 68.67 155.33 85.67 162 109 c
165.33 120.33 167 152.67 167 206 c
167 561 167 206 167 561 c
167 667.67 164.83 731.17 160.5 751.5 c
156.17 771.83 148.17 786.67 136.5 796 c
124.83 805.33 110.33 810 93 810 c
72.33 810 49 805 23 795 c
13 831 23 795 13 831 c
290 943 13 831 290 943 c
332 943 290 943 332 943 c
closepath } bind def
/s115 {
656 943 m
656 631 656 943 656 631 c
623 631 656 631 623 631 c
597.67 729 565.17 795.67 525.5 831 c
485.83 866.33 435.33 884 374 884 c
327.33 884 289.67 871.67 261 847 c
232.33 822.33 218 795 218 765 c
218 727.67 228.67 695.67 250 669 c
270.67 641.67 312.67 612.67 376 582 c
522 511 376 582 522 511 c
657.33 445 725 358 725 250 c
725 166.67 693.5 99.5 630.5 48.5 c
567.5 -2.5 497 -28 419 -28 c
363 -28 299 -18 227 2 c
205 8.67 187 12 173 12 c
157.67 12 145.67 3.33 137 -14 c
104 -14 137 -14 104 -14 c
104 313 104 -14 104 313 c
137 313 104 313 137 313 c
155.67 219.67 191.33 149.33 244 102 c
296.67 54.67 355.67 31 421 31 c
467 31 504.5 44.5 533.5 71.5 c
562.5 98.5 577 131 577 169 c
577 215 560.83 253.67 528.5 285 c
496.17 316.33 431.67 356 335 404 c
238.33 452 175 495.33 145 534 c
115 572 100 620 100 678 c
100 753.33 125.83 816.33 177.5 867 c
229.17 917.67 296 943 378 943 c
414 943 457.67 935.33 509 920 c
543 910 565.67 905 577 905 c
587.67 905 596 907.33 602 912 c
608 916.67 615 927 623 943 c
656 943 623 943 656 943 c
closepath } bind def
/s116 {
330 1217 m
330 916 330 1217 330 916 c
544 916 330 916 544 916 c
544 846 544 916 544 846 c
330 846 544 846 330 846 c
330 252 330 846 330 252 c
330 192.67 338.5 152.67 355.5 132 c
372.5 111.33 394.33 101 421 101 c
443 101 464.33 107.83 485 121.5 c
505.67 135.17 521.67 155.33 533 182 c
572 182 533 182 572 182 c
548.67 116.67 515.67 67.5 473 34.5 c
430.33 1.5 386.33 -15 341 -15 c
310.33 -15 280.33 -6.5 251 10.5 c
221.67 27.5 200 51.83 186 83.5 c
172 115.17 165 164 165 230 c
165 846 165 230 165 846 c
20 846 165 846 20 846 c
20 879 20 846 20 879 c
56.67 893.67 94.17 918.5 132.5 953.5 c
170.83 988.5 205 1030 235 1078 c
250.33 1103.33 271.67 1149.67 299 1217 c
330 1217 299 1217 330 1217 c
closepath } bind def
/s117 {
867 916 m
867 361 867 916 867 361 c
867 255 869.5 190.17 874.5 166.5 c
879.5 142.83 887.5 126.33 898.5 117 c
909.5 107.67 922.33 103 937 103 c
957.67 103 981 108.67 1007 120 c
1021 85 1007 120 1021 85 c
747 -28 1021 85 747 -28 c
702 -28 747 -28 702 -28 c
702 166 702 -28 702 166 c
623.33 80.67 563.33 27 522 5 c
480.67 -17 437 -28 391 -28 c
339.67 -28 295.17 -13.17 257.5 16.5 c
219.83 46.17 193.67 84.33 179 131 c
164.33 177.67 157 243.67 157 329 c
157 738 157 329 157 738 c
157 781.33 152.33 811.33 143 828 c
133.67 844.67 119.83 857.5 101.5 866.5 c
83.17 875.5 50 879.67 2 879 c
2 916 2 879 2 916 c
323 916 2 916 323 916 c
323 303 323 916 323 303 c
323 217.67 337.83 161.67 367.5 135 c
397.17 108.33 433 95 475 95 c
503.67 95 536.17 104 572.5 122 c
608.83 140 652 174.33 702 225 c
702 744 702 225 702 744 c
702 796 692.5 831.17 673.5 849.5 c
654.5 867.83 615 877.67 555 879 c
555 916 555 879 555 916 c
867 916 555 916 867 916 c
closepath } bind def
/s118 {
17 916 m
448 916 17 916 448 916 c
448 879 448 916 448 879 c
420 879 448 879 420 879 c
394 879 374.17 872.67 360.5 860 c
346.83 847.33 340 830.33 340 809 c
340 785.67 347 758 361 726 c
574 220 361 726 574 220 c
788 745 574 220 788 745 c
803.33 782.33 811 810.67 811 830 c
811 839.33 808.33 847 803 853 c
795.67 863 786.33 869.83 775 873.5 c
763.67 877.17 740.67 879 706 879 c
706 916 706 879 706 916 c
1005 916 706 916 1005 916 c
1005 879 1005 916 1005 879 c
970.33 876.33 946.33 869.33 933 858 c
909.67 838 888.67 804.67 870 758 c
545 -28 870 758 545 -28 c
504 -28 545 -28 504 -28 c
177 745 504 -28 177 745 c
162.33 781 148.33 806.83 135 822.5 c
121.67 838.17 104.67 851.33 84 862 c
72.67 868 50.33 873.67 17 879 c
17 916 17 879 17 916 c
closepath } bind def
/s121 {
12 916 m
439 916 12 916 439 916 c
439 879 439 916 439 879 c
418 879 439 879 418 879 c
388 879 365.5 872.5 350.5 859.5 c
335.5 846.5 328 830.33 328 811 c
328 785 339 749 361 703 c
584 241 361 703 584 241 c
789 747 584 241 789 747 c
800.33 774.33 806 801.33 806 828 c
806 840 803.67 849 799 855 c
793.67 862.33 785.33 868.17 774 872.5 c
762.67 876.83 742.67 879 714 879 c
714 916 714 879 714 916 c
1012 916 714 916 1012 916 c
1012 879 1012 916 1012 879 c
987.33 876.33 968.33 871 955 863 c
941.67 855 927 840 911 818 c
905 808.67 893.67 783 877 741 c
504 -173 877 741 504 -173 c
468 -261.67 420.83 -328.67 362.5 -374 c
304.17 -419.33 248 -442 194 -442 c
154.67 -442 122.33 -430.67 97 -408 c
71.67 -385.33 59 -359.33 59 -330 c
59 -302 68.17 -279.5 86.5 -262.5 c
104.83 -245.5 130 -237 162 -237 c
184 -237 214 -244.33 252 -259 c
278.67 -269 295.33 -274 302 -274 c
322 -274 343.83 -263.67 367.5 -243 c
391.17 -222.33 415 -182.33 439 -123 c
504 36 439 -123 504 36 c
175 727 504 36 175 727 c
165 747.67 149 773.33 127 804 c
110.33 827.33 96.67 843 86 851 c
70.67 861.67 46 871 12 879 c
12 916 12 879 12 916 c
closepath } bind def
end
/BuildGlyph {
 exch dup /Metrics get 2 index get 0 setcharwidth
/CharProcs get exch 2 copy known not{pop/.notdef}if get exec fill}bind def
/BuildChar {
1 index /Encoding get exch get
1 index /BuildGlyph get exec
} bind def
currentdict end /MC3_Times-New-Roman exch definefont pop
%%EndFont
/clipproc{clippath{[{/m cvx}{/l cvx}{/c cvx}{/cp cvx}pathforall}stopped
{cleartomark[pathbbox exch 3 i sub exch 2 i sub/rectpath cvx}if]np}bd
/iclmtx mtx cmtx def/iclpath clipproc xd/clinit{pathproc initclip np iclpath cl np exec}bd
/clmove{pathproc 3 1 roll clippath pathproc 2 i neg 2 i neg tr initclip np exec cl tr np exec}bd
/clrect[gs np iclpath{pathbbox}stopped{0 0 504 144 }if gr]def
/cloper{mtx cmtx iclmtx smtx exch exec smtx}bd
/cland{{exch cvx exec}cloper}bd
/clcopy{{exch clinit cvx exec}cloper}bd
/cldiff{{exch pathbbox 4 -1 roll clrect 0 get 2 copy gt{exch}if pop 4 1 roll
 3 -1 roll clrect 1 get 2 copy gt{exch}if pop 3 1 roll
 2 -1 roll clrect 2 get 2 copy lt{exch}if pop 2 1 roll
 1 -1 roll clrect 3 get 2 copy lt{exch}if pop 1 1 roll
 exch 3 i sub exch 2 i sub rectpath cvx exec}cloper}bd
/icl{{clinit}cloper}bd
0.391949 0.392036 sc

/initmtx mtx cmtx def
initmtx smtx
[1.0000 0.0000 0.0000 1.0000 0.0000 0.0000 ] concat
 [0.612328 -0 0 -0.612205 0 367.313] concat
gs
210 112 m
213 112 l
2 sw
0.753 0.753 0.753 rgb
1 sj
st
223 112 m
226 112 l
st
236 112 m
239 112 l
st
249 112 m
252 112 l
st
262 112 m
265 112 l
st
275 112 m
278 112 l
st
288 112 m
291 112 l
st
301 112 m
304 112 l
st
314 112 m
317 112 l
st
327 112 m
330 112 l
st
340 112 m
343 112 l
st
353 112 m
356 112 l
st
366 112 m
369 112 l
st
379 112 m
382 112 l
st
392 112 m
395 112 l
st
405 112 m
408 112 l
st
418 112 m
421 112 l
st
431 112 m
434 112 l
st
444 112 m
447 112 l
st
457 112 m
460 112 l
st
470 112 m
473 112 l
st
483 112 m
486 112 l
st
496 112 m
499 112 l
st
509 112 m
512 112 l
st
522 112 m
525 112 l
st
535 112 m
538 112 l
st
548 112 m
551 112 l
st
561 112 m
564 112 l
st
574 112 m
577 112 l
st
587 112 m
590 112 l
st
600 112 m
603 112 l
st
613 112 m
616 112 l
st
626 112 m
629 112 l
st
639 112 m
642 112 l
st
652 112 m
655 112 l
st
665 112 m
668 112 l
st
678 112 m
681 112 l
st
691 112 m
694 112 l
st
704 112 m
707 112 l
st
717 112 m
720 112 l
st
730 112 m
733 112 l
st
743 112 m
746 112 l
st
756 112 m
759 112 l
st
769 112 m
772 112 l
st
782 112 m
785 112 l
st
795 112 m
798 112 l
st
808 112 m
810 112 l
st
810 112 m
808 112 l
st
1080 265 m
1082 265 l
1 sw
st
1087 265 m
1089 265 l
st
1094 265 m
1096 265 l
st
1101 265 m
1103 265 l
st
1108 265 m
1110 265 l
st
1115 265 m
1117 265 l
st
1122 265 m
1124 265 l
st
1129 265 m
1131 265 l
st
1136 265 m
1138 265 l
st
1143 265 m
1145 265 l
st
1150 265 m
1152 265 l
st
1157 265 m
1159 265 l
st
1164 265 m
1166 265 l
st
1171 265 m
1173 265 l
st
1178 265 m
1180 265 l
st
1185 265 m
1187 265 l
st
1192 265 m
1194 265 l
st
1199 265 m
1201 265 l
st
1206 265 m
1208 265 l
st
1213 265 m
1215 265 l
st
1220 265 m
1222 265 l
st
1227 265 m
1229 265 l
st
1234 265 m
1236 265 l
st
1241 265 m
1243 265 l
st
1248 265 m
1250 265 l
st
1255 265 m
1257 265 l
st
1262 265 m
1264 265 l
st
1269 265 m
1271 265 l
st
1080 199 m
1082 199 l
st
1087 199 m
1089 199 l
st
1094 199 m
1096 199 l
st
1101 199 m
1103 199 l
st
1108 199 m
1110 199 l
st
1115 199 m
1117 199 l
st
1122 199 m
1124 199 l
st
1129 199 m
1131 199 l
st
1136 199 m
1138 199 l
st
1143 199 m
1145 199 l
st
1150 199 m
1152 199 l
st
1157 199 m
1159 199 l
st
1164 199 m
1166 199 l
st
1171 199 m
1173 199 l
st
1178 199 m
1180 199 l
st
1185 199 m
1187 199 l
st
1192 199 m
1194 199 l
st
1199 199 m
1201 199 l
st
1206 199 m
1208 199 l
st
1213 199 m
1215 199 l
st
1220 199 m
1222 199 l
st
1227 199 m
1229 199 l
st
1234 199 m
1236 199 l
st
1241 199 m
1243 199 l
st
1248 199 m
1250 199 l
st
1255 199 m
1257 199 l
st
1262 199 m
1264 199 l
st
1269 199 m
1271 199 l
st
1080 134 m
1082 134 l
st
1087 134 m
1089 134 l
st
1094 134 m
1096 134 l
st
1101 134 m
1103 134 l
st
1108 134 m
1110 134 l
st
1115 134 m
1117 134 l
st
1122 134 m
1124 134 l
st
1129 134 m
1131 134 l
st
1136 134 m
1138 134 l
st
1143 134 m
1145 134 l
st
1150 134 m
1152 134 l
st
1157 134 m
1159 134 l
st
1164 134 m
1166 134 l
st
1171 134 m
1173 134 l
st
1178 134 m
1180 134 l
st
1185 134 m
1187 134 l
st
1192 134 m
1194 134 l
st
1199 134 m
1201 134 l
st
1206 134 m
1208 134 l
st
1213 134 m
1215 134 l
st
1220 134 m
1222 134 l
st
1227 134 m
1229 134 l
st
1234 134 m
1236 134 l
st
1241 134 m
1243 134 l
st
1248 134 m
1250 134 l
st
1255 134 m
1257 134 l
st
1262 134 m
1264 134 l
st
1269 134 m
1271 134 l
st
1485 112 m
1488 112 l
2 sw
st
1498 112 m
1501 112 l
st
1511 112 m
1514 112 l
st
1524 112 m
1527 112 l
st
1537 112 m
1540 112 l
st
1550 112 m
1553 112 l
st
1563 112 m
1566 112 l
st
1576 112 m
1579 112 l
st
1589 112 m
1592 112 l
st
1602 112 m
1605 112 l
st
1615 112 m
1618 112 l
st
1628 112 m
1631 112 l
st
1641 112 m
1644 112 l
st
1654 112 m
1657 112 l
st
1667 112 m
1670 112 l
st
1680 112 m
1683 112 l
st
1693 112 m
1696 112 l
st
1706 112 m
1709 112 l
st
1719 112 m
1722 112 l
st
1732 112 m
1735 112 l
st
1745 112 m
1748 112 l
st
1758 112 m
1761 112 l
st
1771 112 m
1774 112 l
st
1784 112 m
1787 112 l
st
1797 112 m
1800 112 l
st
1810 112 m
1813 112 l
st
1823 112 m
1826 112 l
st
1836 112 m
1839 112 l
st
1849 112 m
1852 112 l
st
1862 112 m
1865 112 l
st
1875 112 m
1878 112 l
st
1888 112 m
1891 112 l
st
1901 112 m
1904 112 l
st
1914 112 m
1917 112 l
st
1927 112 m
1930 112 l
st
1940 112 m
1943 112 l
st
1953 112 m
1956 112 l
st
1966 112 m
1969 112 l
st
1979 112 m
1982 112 l
st
1992 112 m
1995 112 l
st
2005 112 m
2008 112 l
st
2018 112 m
2021 112 l
st
2031 112 m
2034 112 l
st
2044 112 m
2047 112 l
st
2057 112 m
2060 112 l
st
2070 112 m
2073 112 l
st
2083 112 m
2085 112 l
st
2085 112 m
2083 112 l
st
gs
pathproc 210 90 601 241 np rectpath
/eocl cland
np exec
419 120 m
436 120 l
436 330 l
419 330 l
cp
gs
0.318 0.318 0.318 rgb
eofi
gr
4 sw
0 0 0 rgb
1 scap
st
680 128 m
697 128 l
697 330 l
680 330 l
cp
gs
0.318 0.318 0.318 rgb
eofi
gr
st
353 136 m
371 136 l
371 330 l
353 330 l
cp
gs
0.318 0.318 0.318 rgb
eofi
gr
st
484 135 m
501 135 l
501 330 l
484 330 l
cp
gs
0.318 0.318 0.318 rgb
eofi
gr
st
614 124 m
632 124 l
632 330 l
614 330 l
cp
gs
0.318 0.318 0.318 rgb
eofi
gr
st
549 118 m
567 118 l
567 330 l
549 330 l
cp
gs
0.318 0.318 0.318 rgb
eofi
gr
st
223 119 m
240 119 l
240 330 l
223 330 l
cp
gs
0.318 0.318 0.318 rgb
eofi
gr
st
288 119 m
306 119 l
306 330 l
288 330 l
cp
gs
0.318 0.318 0.318 rgb
eofi
gr
st
gr
gs
pathproc 210 90 601 241 np rectpath
/eocl cland
np exec
419 112 m
436 112 l
436 120 l
419 120 l
cp
gs
1 1 1 rgb
eofi
gr
4 sw
0 0 0 rgb
1 scap
st
680 112 m
697 112 l
697 128 l
680 128 l
cp
gs
1 1 1 rgb
eofi
gr
st
353 112 m
371 112 l
371 136 l
353 136 l
cp
gs
1 1 1 rgb
eofi
gr
st
484 112 m
501 112 l
501 135 l
484 135 l
cp
gs
1 1 1 rgb
eofi
gr
st
614 112 m
632 112 l
632 124 l
614 124 l
cp
gs
1 1 1 rgb
eofi
gr
st
549 112 m
567 112 l
567 118 l
549 118 l
cp
gs
1 1 1 rgb
eofi
gr
st
223 112 m
240 112 l
240 119 l
223 119 l
cp
gs
1 1 1 rgb
eofi
gr
st
288 112 m
306 112 l
306 119 l
288 119 l
cp
gs
1 1 1 rgb
eofi
gr
st
gr
gs
pathproc 210 90 601 241 np rectpath
/eocl cland
np exec
436 238 m
453 238 l
453 330 l
436 330 l
cp
gs
0.945 0.251 0.251 rgb
eofi
gr
4 sw
0 0 0 rgb
1 scap
st
697 242 m
714 242 l
714 330 l
697 330 l
cp
gs
0.945 0.251 0.251 rgb
eofi
gr
st
371 261 m
388 261 l
388 330 l
371 330 l
cp
gs
0.945 0.251 0.251 rgb
eofi
gr
st
501 250 m
519 250 l
519 330 l
501 330 l
cp
gs
0.945 0.251 0.251 rgb
eofi
gr
st
632 254 m
649 254 l
649 330 l
632 330 l
cp
gs
0.945 0.251 0.251 rgb
eofi
gr
st
567 219 m
584 219 l
584 330 l
567 330 l
cp
gs
0.945 0.251 0.251 rgb
eofi
gr
st
240 245 m
258 245 l
258 330 l
240 330 l
cp
gs
0.945 0.251 0.251 rgb
eofi
gr
st
306 221 m
323 221 l
323 330 l
306 330 l
cp
gs
0.945 0.251 0.251 rgb
eofi
gr
st
gr
gs
pathproc 210 90 601 241 np rectpath
/eocl cland
np exec
436 229 m
453 229 l
453 238 l
436 238 l
cp
gs
1 1 1 rgb
eofi
gr
4 sw
0 0 0 rgb
1 scap
st
697 226 m
714 226 l
714 242 l
697 242 l
cp
gs
1 1 1 rgb
eofi
gr
st
371 236 m
388 236 l
388 261 l
371 261 l
cp
gs
1 1 1 rgb
eofi
gr
st
501 226 m
519 226 l
519 250 l
501 250 l
cp
gs
1 1 1 rgb
eofi
gr
st
632 242 m
649 242 l
649 254 l
632 254 l
cp
gs
1 1 1 rgb
eofi
gr
st
567 213 m
584 213 l
584 219 l
567 219 l
cp
gs
1 1 1 rgb
eofi
gr
st
240 238 m
258 238 l
258 245 l
240 245 l
cp
gs
1 1 1 rgb
eofi
gr
st
306 214 m
323 214 l
323 221 l
306 221 l
cp
gs
1 1 1 rgb
eofi
gr
st
gr
gs
pathproc 210 90 601 241 np rectpath
/eocl cland
np exec
453 315 m
471 315 l
471 330 l
453 330 l
cp
gs
1 1 0 rgb
eofi
gr
4 sw
0 0 0 rgb
1 scap
st
714 323 m
732 323 l
732 330 l
714 330 l
cp
gs
1 1 0 rgb
eofi
gr
st
388 315 m
406 315 l
406 330 l
388 330 l
cp
gs
1 1 0 rgb
eofi
gr
st
519 323 m
536 323 l
536 330 l
519 330 l
cp
gs
1 1 0 rgb
eofi
gr
st
649 321 m
667 321 l
667 330 l
649 330 l
cp
gs
1 1 0 rgb
eofi
gr
st
584 322 m
601 322 l
601 330 l
584 330 l
cp
gs
1 1 0 rgb
eofi
gr
st
258 321 m
275 321 l
275 330 l
258 330 l
cp
gs
1 1 0 rgb
eofi
gr
st
323 322 m
340 322 l
340 330 l
323 330 l
cp
gs
1 1 0 rgb
eofi
gr
st
gr
gs
pathproc 210 90 601 241 np rectpath
/eocl cland
np exec
453 307 m
471 307 l
471 315 l
453 315 l
cp
gs
1 1 1 rgb
eofi
gr
4 sw
0 0 0 rgb
1 scap
st
714 307 m
732 307 l
732 323 l
714 323 l
cp
gs
1 1 1 rgb
eofi
gr
st
388 291 m
406 291 l
406 315 l
388 315 l
cp
gs
1 1 1 rgb
eofi
gr
st
519 300 m
536 300 l
536 323 l
519 323 l
cp
gs
1 1 1 rgb
eofi
gr
st
649 309 m
667 309 l
667 321 l
649 321 l
cp
gs
1 1 1 rgb
eofi
gr
st
584 316 m
601 316 l
601 322 l
584 322 l
cp
gs
1 1 1 rgb
eofi
gr
st
258 314 m
275 314 l
275 321 l
258 321 l
cp
gs
1 1 1 rgb
eofi
gr
st
323 315 m
340 315 l
340 322 l
323 322 l
cp
gs
1 1 1 rgb
eofi
gr
st
gr
gs
pathproc 1080 90 196 241 np rectpath
/eocl cland
np exec
1092 233 m
1117 233 l
1117 330 l
1092 330 l
cp
gs
0.251 0.251 0.251 rgb
eofi
gr
3 sw
0 0 0 rgb
1 scap
st
1153 280 m
1177 280 l
1177 330 l
1153 330 l
cp
gs
0.251 0.251 0.251 rgb
eofi
gr
st
1214 105 m
1238 105 l
1238 330 l
1214 330 l
cp
gs
0.251 0.251 0.251 rgb
eofi
gr
st
gr
gs
pathproc 1080 90 196 241 np rectpath
/eocl cland
np exec
1117 285 m
1141 285 l
1141 330 l
1117 330 l
cp
gs
0.945 0.251 0.251 rgb
eofi
gr
3 sw
0 0 0 rgb
1 scap
st
1178 316 m
1202 316 l
1202 330 l
1178 330 l
cp
gs
0.945 0.251 0.251 rgb
eofi
gr
st
1238 254 m
1263 254 l
1263 330 l
1238 330 l
cp
gs
0.945 0.251 0.251 rgb
eofi
gr
st
gr
gs
pathproc 1485 90 601 241 np rectpath
/eocl cland
np exec
1694 171 m
1711 171 l
1711 330 l
1694 330 l
cp
gs
0.318 0.318 0.318 rgb
eofi
gr
4 sw
0 0 0 rgb
1 scap
st
1955 198 m
1972 198 l
1972 330 l
1955 330 l
cp
gs
0.318 0.318 0.318 rgb
eofi
gr
st
1628 217 m
1646 217 l
1646 330 l
1628 330 l
cp
gs
0.318 0.318 0.318 rgb
eofi
gr
st
1759 217 m
1776 217 l
1776 330 l
1759 330 l
cp
gs
0.318 0.318 0.318 rgb
eofi
gr
st
1889 186 m
1907 186 l
1907 330 l
1889 330 l
cp
gs
0.318 0.318 0.318 rgb
eofi
gr
st
1824 157 m
1842 157 l
1842 330 l
1824 330 l
cp
gs
0.318 0.318 0.318 rgb
eofi
gr
st
1498 164 m
1515 164 l
1515 330 l
1498 330 l
cp
gs
0.318 0.318 0.318 rgb
eofi
gr
st
1563 164 m
1581 164 l
1581 330 l
1563 330 l
cp
gs
0.318 0.318 0.318 rgb
eofi
gr
st
gr
gs
pathproc 1485 90 601 241 np rectpath
/eocl cland
np exec
1694 112 m
1711 112 l
1711 171 l
1694 171 l
cp
gs
1 1 1 rgb
eofi
gr
4 sw
0 0 0 rgb
1 scap
st
1955 112 m
1972 112 l
1972 198 l
1955 198 l
cp
gs
1 1 1 rgb
eofi
gr
st
1628 112 m
1646 112 l
1646 217 l
1628 217 l
cp
gs
1 1 1 rgb
eofi
gr
st
1759 112 m
1776 112 l
1776 217 l
1759 217 l
cp
gs
1 1 1 rgb
eofi
gr
st
1889 112 m
1907 112 l
1907 186 l
1889 186 l
cp
gs
1 1 1 rgb
eofi
gr
st
1824 112 m
1842 112 l
1842 157 l
1824 157 l
cp
gs
1 1 1 rgb
eofi
gr
st
1498 112 m
1515 112 l
1515 164 l
1498 164 l
cp
gs
1 1 1 rgb
eofi
gr
st
1563 112 m
1581 112 l
1581 164 l
1563 164 l
cp
gs
1 1 1 rgb
eofi
gr
st
gr
gs
pathproc 1485 90 601 241 np rectpath
/eocl cland
np exec
1711 321 m
1728 321 l
1728 330 l
1711 330 l
cp
gs
0.945 0.251 0.251 rgb
eofi
gr
4 sw
0 0 0 rgb
1 scap
st
1972 323 m
1989 323 l
1989 330 l
1972 330 l
cp
gs
0.945 0.251 0.251 rgb
eofi
gr
st
1646 326 m
1663 326 l
1663 330 l
1646 330 l
cp
gs
0.945 0.251 0.251 rgb
eofi
gr
st
1776 325 m
1794 325 l
1794 330 l
1776 330 l
cp
gs
0.945 0.251 0.251 rgb
eofi
gr
st
1907 324 m
1924 324 l
1924 330 l
1907 330 l
cp
gs
0.945 0.251 0.251 rgb
eofi
gr
st
1842 317 m
1859 317 l
1859 330 l
1842 330 l
cp
gs
0.945 0.251 0.251 rgb
eofi
gr
st
1515 321 m
1533 321 l
1533 330 l
1515 330 l
cp
gs
0.945 0.251 0.251 rgb
eofi
gr
st
1581 318 m
1598 318 l
1598 330 l
1581 330 l
cp
gs
0.945 0.251 0.251 rgb
eofi
gr
st
gr
gs
pathproc 1485 90 601 241 np rectpath
/eocl cland
np exec
1711 262 m
1728 262 l
1728 321 l
1711 321 l
cp
gs
1 1 1 rgb
eofi
gr
4 sw
0 0 0 rgb
1 scap
st
1972 237 m
1989 237 l
1989 323 l
1972 323 l
cp
gs
1 1 1 rgb
eofi
gr
st
1646 220 m
1663 220 l
1663 326 l
1646 326 l
cp
gs
1 1 1 rgb
eofi
gr
st
1776 220 m
1794 220 l
1794 325 l
1776 325 l
cp
gs
1 1 1 rgb
eofi
gr
st
1907 250 m
1924 250 l
1924 324 l
1907 324 l
cp
gs
1 1 1 rgb
eofi
gr
st
1842 272 m
1859 272 l
1859 317 l
1842 317 l
cp
gs
1 1 1 rgb
eofi
gr
st
1515 269 m
1533 269 l
1533 321 l
1515 321 l
cp
gs
1 1 1 rgb
eofi
gr
st
1581 266 m
1598 266 l
1598 318 l
1581 318 l
cp
gs
1 1 1 rgb
eofi
gr
st
gr
gs
pathproc 1485 90 601 241 np rectpath
/eocl cland
np exec
1728 330 m
1746 330 l
4 sw
0 0 0 rgb
1 scap
st
1989 330 m
2007 330 l
st
1663 330 m
1681 330 l
st
1794 330 m
1811 330 l
st
1924 330 m
1942 330 l
st
1859 330 m
1876 330 l
st
1533 330 m
1550 330 l
st
1598 330 m
1615 330 l
st
gr
gs
pathproc 1485 90 601 241 np rectpath
/eocl cland
np exec
1728 271 m
1746 271 l
1746 330 l
1728 330 l
cp
gs
1 1 1 rgb
eofi
gr
4 sw
0 0 0 rgb
1 scap
st
1989 244 m
2007 244 l
2007 330 l
1989 330 l
cp
gs
1 1 1 rgb
eofi
gr
st
1663 225 m
1681 225 l
1681 330 l
1663 330 l
cp
gs
1 1 1 rgb
eofi
gr
st
1794 225 m
1811 225 l
1811 330 l
1794 330 l
cp
gs
1 1 1 rgb
eofi
gr
st
1924 256 m
1942 256 l
1942 330 l
1924 330 l
cp
gs
1 1 1 rgb
eofi
gr
st
1859 284 m
1876 284 l
1876 330 l
1859 330 l
cp
gs
1 1 1 rgb
eofi
gr
st
1533 277 m
1550 277 l
1550 330 l
1533 330 l
cp
gs
1 1 1 rgb
eofi
gr
st
1598 278 m
1615 278 l
1615 330 l
1598 330 l
cp
gs
1 1 1 rgb
eofi
gr
st
gr
210 332 m
810 332 l
6 sw
0 0 0 rgb
2 scap
st
210 90 m
810 90 l
st
217 332 m
217 341 l
0 scap
st
282 332 m
282 341 l
st
347 332 m
347 341 l
st
412 332 m
412 341 l
st
477 332 m
477 341 l
st
543 332 m
543 341 l
st
608 332 m
608 341 l
st
673 332 m
673 341 l
st
738 332 m
738 341 l
st
803 332 m
803 341 l
st
210 330 m
210 90 l
2 scap
st
810 330 m
810 90 l
st
210 221 m
201 221 l
0 scap
st
210 330 m
193 330 l
st
210 112 m
193 112 l
st
gs
gr
gs
gr
gs
gs
1 -1 sc
70 -533 tr
40 ro
/MC1_Arial 58 self 0 0 m
(lastfmasia)[13 32 29 16 16 48 32 29 13 32 ] xs
1 -1 sc
gr
gr
gs
gr
gs
gr
gs
gs
1 -1 sc
148 -522 tr
40 ro
/MC1_Arial 58 self 0 0 m
(pubmedF)[32 32 32 48 32 32 35 ] xs
1 -1 sc
gr
gr
gs
gr
gs
gr
gs
gs
1 -1 sc
218 -518 tr
40 ro
/MC1_Arial 58 self 0 0 m
(citeseerF)[29 13 16 32 29 32 32 19 35 ] xs
1 -1 sc
gr
gr
gs
gr
gs
gr
gs
gs
1 -1 sc
367 -448 tr
40 ro
/MC1_Arial 58 self 0 0 m
(actor)[32 29 16 32 19 ] xs
1 -1 sc
gr
gr
gs
gr
gs
gr
gs
gs
1 -1 sc
444 -438 tr
40 ro
/MC1_Arial 58 self 0 0 m
(cora)[29 32 19 32 ] xs
1 -1 sc
gr
gr
gs
gr
gs
gr
gs
gs
1 -1 sc
485 -459 tr
40 ro
/MC1_Arial 58 self 0 0 m
(dblpF)[32 32 13 32 35 ] xs
1 -1 sc
gr
gr
gs
gr
gs
gr
gs
gs
1 -1 sc
501 -500 tr
40 ro
/MC1_Arial 58 self 0 0 m
(coramlF)[29 32 19 32 48 13 35 ] xs
1 -1 sc
gr
gr
gs
gr
gs
gr
gs
gs
1 -1 sc
571 -496 tr
40 ro
/MC1_Arial 58 self 0 0 m
(citeseer)[29 13 16 32 29 32 32 19 ] xs
1 -1 sc
gr
gr
gs
gr
gs
gr
gs
1 -1 sc
/MC2_Arial 67 self 144 -350 m
(0)[37 ] xs
1 -1 sc
gr
gs
gr
gs
gr
gs
1 -1 sc
/MC2_Arial 67 self 144 -132 m
(1)[37 ] xs
1 -1 sc
gr
gs
gr
gs
gr
gs
gr
gs
gr
gs
gr
gs
gr
gs
gr
gs
gr
gs
gr
gs
gr
gs
gr
gs
gr
gs
gr
gs
gr
gs
gr
gs
gr
gs
gr
gs
gr
gs
gr
gs
gr
gs
gr
gs
gr
gs
gr
gs
gr
gs
gr
gs
gr
gs
gr
gs
gr
gs
gr
gs
gr
473 8 m
1724 8 l
1724 79 l
473 79 l
cp
gs
1 1 1 rgb
eofi
gr
4 sw
0 sj
2 scap
st
gs
gs
gr
gs
gs
483 18 m
533 18 l
533 68 l
483 68 l
cp
gs
0.318 0.318 0.318 rgb
eofi
gr
1 sj
1 scap
st
gr
gr
1 -1 sc
/MC2_Arial 62 self 543 -65 m
(CpuGNN)[45 34 34 48 45 45 ] xs
1 -1 sc
1 -1 sc
794 -65 m
( )[17 ] xs
1 -1 sc
gs
gr
gs
gs
820 18 m
870 18 l
870 68 l
820 68 l
cp
gs
0.945 0.251 0.251 rgb
eofi
gr
1 sj
1 scap
st
gr
gr
1 -1 sc
880 -65 m
(ManyGNN)[51 34 34 29 48 45 45 ] xs
1 -1 sc
1 -1 sc
1166 -65 m
( )[17 ] xs
1 -1 sc
gs
gr
gs
gs
1192 18 m
1242 18 l
1242 68 l
1192 68 l
cp
gs
1 1 0 rgb
eofi
gr
1 sj
1 scap
st
gr
gr
1 -1 sc
1252 -65 m
(PreGNN)[41 21 34 48 45 45 ] xs
1 -1 sc
1 -1 sc
1486 -65 m
( )[17 ] xs
1 -1 sc
gs
gr
gs
gs
1512 18 m
1562 18 l
1562 68 l
1512 68 l
cp
gs
1 1 1 rgb
eofi
gr
1 sj
1 scap
st
gr
gr
1 -1 sc
1572 -65 m
(GPU)[48 41 45 ] xs
1 -1 sc
1 -1 sc
1706 -65 m
( )[17 ] xs
1 -1 sc
gr
gs
gs
1 -1 sc
61 -409 tr
90 ro
/MC1_Arial 71 self 0 0 m
(Normalized)[51 40 24 59 40 16 16 36 40 40 ] xs
1 -1 sc
gr
gs
1 -1 sc
127 -407 tr
90 ro
/MC1_Arial 71 self 0 0 m
(Exec. Time)[47 36 40 36 20 20 43 16 59 40 ] xs
1 -1 sc
gr
gr
710 112 m
754 112 l
1 0.502 0 rgb
1 sj
0 scap
st
734 112 m
734 301 l
st
734 301 m
724 275 l
734 275 l
744 275 l
cp
gs
eofi
gr
0 sj
st
gs
gs
1 -1 sc
792 -319 tr
90 ro
/MC1_Arial 54 self 0 0 m
(Max. 16x)[45 30 27 15 15 30 30 27 ] xs
1 -1 sc
gr
gr
gs
1 -1 sc
0 0 0 rgb
/MC3_Times-New-Roman 67 self 7 -583 m
(\(a\) Overall performance.)[22 30 22 17 48 33 29 22 30 18 18 17 34 29 22 22 33 22 52 30 34 30 29 17 ] xs
1 -1 sc
gr
gs
1 -1 sc
0 0 0 rgb
/MC3_Times-New-Roman 67 self 695 -583 m
(\(b\) Preprocessing speedup.)[22 34 22 17 37 22 29 34 22 33 30 29 26 26 19 34 33 17 26 34 29 29 34 34 34 17 ] xs
1 -1 sc
gr
gs
1 -1 sc
0 0 0 rgb
/MC3_Times-New-Roman 67 self 1435 -583 m
(\(c\) Energy consumption.)[22 30 22 17 41 34 29 22 33 32 17 30 33 34 26 34 52 34 19 19 33 34 17 ] xs
1 -1 sc
gr
gs
gr
gs
gr
gs
gr
gs
gr
gs
gr
gs
gr
gs
gr
gs
gr
gs
gr
gs
gr
gs
gr
gs
gr
gs
gr
gs
gr
gs
gr
gs
gr
1080 330 m
1275 330 l
6 sw
0 0 0 rgb
1 sj
2 scap
st
1080 90 m
1275 90 l
st
1086 330 m
1086 339 l
0 scap
st
1147 330 m
1147 339 l
st
1208 330 m
1208 339 l
st
1269 330 m
1269 339 l
st
1080 90 m
1275 90 l
2 scap
st
1080 330 m
1275 330 l
st
1080 330 m
1080 90 l
st
1275 330 m
1275 90 l
st
1080 297 m
1071 297 l
0 scap
st
1080 232 m
1071 232 l
st
1080 166 m
1071 166 l
st
1080 101 m
1071 101 l
st
1080 330 m
1063 330 l
st
1080 265 m
1063 265 l
st
1080 199 m
1063 199 l
st
1080 134 m
1063 134 l
st
1275 330 m
1275 90 l
2 scap
st
1080 330 m
1080 90 l
st
gs
gr
gs
gr
gs
gs
1 -1 sc
1044 -480 tr
50 ro
/MC1_Arial 58 self 0 0 m
(Graph)[45 19 32 32 32 ] xs
1 -1 sc
gr
gr
gs
gr
gs
gr
gs
gs
1 -1 sc
1082 -507 tr
50 ro
/MC1_Arial 58 self 0 0 m
(Sample)[39 32 48 32 13 32 ] xs
1 -1 sc
gr
gr
gs
gr
gs
gr
gs
gs
1 -1 sc
1121 -532 tr
50 ro
/MC1_Arial 58 self 0 0 m
(Reconst.)[42 32 29 32 32 29 16 16 ] xs
1 -1 sc
gr
gr
gs
gr
gs
gr
gs
1 -1 sc
/MC2_Arial 67 self 1014 -350 m
(0)[37 ] xs
1 -1 sc
gr
gs
gr
gs
gr
gs
1 -1 sc
/MC2_Arial 67 self 977 -285 m
(15)[37 37 ] xs
1 -1 sc
gr
gs
gr
gs
gr
gs
1 -1 sc
/MC2_Arial 67 self 977 -219 m
(30)[37 37 ] xs
1 -1 sc
gr
gs
gr
gs
gr
gs
1 -1 sc
/MC2_Arial 67 self 977 -154 m
(45)[37 37 ] xs
1 -1 sc
gr
gs
gr
gs
gr
gs
gr
gs
gr
gs
gr
gs
gr
gs
gr
gs
gr
gs
gr
gs
gr
gs
gr
gs
gr
gs
gr
gs
gr
gs
gr
gs
gr
gs
gr
gs
gr
gs
gr
gs
gr
gs
gr
gs
gr
gs
gr
gs
gs
1 -1 sc
894 -445 tr
90 ro
/MC1_Arial 71 self 0 0 m
(Normalized)[51 40 24 59 40 16 16 36 40 40 ] xs
1 -1 sc
gr
gs
1 -1 sc
960 -408 tr
90 ro
/MC1_Arial 71 self 0 0 m
(Speedup)[47 40 40 40 40 40 40 ] xs
1 -1 sc
gr
gr
1485 330 m
2085 330 l
st
1485 90 m
2085 90 l
st
1492 330 m
1492 339 l
0 scap
st
1557 330 m
1557 339 l
st
1622 330 m
1622 339 l
st
1687 330 m
1687 339 l
st
1752 330 m
1752 339 l
st
1818 330 m
1818 339 l
st
1883 330 m
1883 339 l
st
1948 330 m
1948 339 l
st
2013 330 m
2013 339 l
st
2078 330 m
2078 339 l
st
1485 330 m
1485 90 l
2 scap
st
2085 330 m
2085 90 l
st
1485 221 m
1476 221 l
0 scap
st
1485 330 m
1468 330 l
st
1485 112 m
1468 112 l
st
gs
gr
gs
gr
gs
gs
1 -1 sc
1353 -531 tr
40 ro
/MC1_Arial 58 self 0 0 m
(lastfmasia)[13 32 29 16 16 48 32 29 13 32 ] xs
1 -1 sc
gr
gr
gs
gr
gs
gr
gs
gs
1 -1 sc
1431 -520 tr
40 ro
/MC1_Arial 58 self 0 0 m
(pubmedF)[32 32 32 48 32 32 35 ] xs
1 -1 sc
gr
gr
gs
gr
gs
gr
gs
gs
1 -1 sc
1501 -516 tr
40 ro
/MC1_Arial 58 self 0 0 m
(citeseerF)[29 13 16 32 29 32 32 19 35 ] xs
1 -1 sc
gr
gr
gs
gr
gs
gr
gs
gs
1 -1 sc
1650 -446 tr
40 ro
/MC1_Arial 58 self 0 0 m
(actor)[32 29 16 32 19 ] xs
1 -1 sc
gr
gr
gs
gr
gs
gr
gs
gs
1 -1 sc
1727 -436 tr
40 ro
/MC1_Arial 58 self 0 0 m
(cora)[29 32 19 32 ] xs
1 -1 sc
gr
gr
gs
gr
gs
gr
gs
gs
1 -1 sc
1768 -457 tr
40 ro
/MC1_Arial 58 self 0 0 m
(dblpF)[32 32 13 32 35 ] xs
1 -1 sc
gr
gr
gs
gr
gs
gr
gs
gs
1 -1 sc
1784 -498 tr
40 ro
/MC1_Arial 58 self 0 0 m
(coramlF)[29 32 19 32 48 13 35 ] xs
1 -1 sc
gr
gr
gs
gr
gs
gr
gs
gs
1 -1 sc
1854 -494 tr
40 ro
/MC1_Arial 58 self 0 0 m
(citeseer)[29 13 16 32 29 32 32 19 ] xs
1 -1 sc
gr
gr
gs
gr
gs
gr
gs
1 -1 sc
/MC2_Arial 67 self 1419 -350 m
(0)[37 ] xs
1 -1 sc
gr
gs
gr
gs
gr
gs
1 -1 sc
/MC2_Arial 67 self 1419 -132 m
(1)[37 ] xs
1 -1 sc
gr
gs
gr
gs
gr
gs
gr
gs
gr
gs
gr
gs
gr
gs
gr
gs
gr
gs
gr
gs
gr
gs
gr
gs
gr
gs
gr
gs
gr
gs
gr
gs
gr
gs
gr
gs
gr
gs
gr
gs
gr
gs
gr
gs
gr
gs
gr
gs
gr
gs
gr
gs
gr
gs
gr
gs
gr
gs
gr
gs
gr
gs
gs
1 -1 sc
1343 -445 tr
90 ro
/MC1_Arial 71 self 0 0 m
(Normalized)[51 40 24 59 40 16 16 36 40 40 ] xs
1 -1 sc
gr
gs
1 -1 sc
1409 -378 tr
90 ro
/MC1_Arial 71 self 0 0 m
(Energy)[47 40 40 24 40 36 ] xs
1 -1 sc
gr
gr
1980 112 m
2016 112 l
4 sw
1 0.502 0 rgb
st
gs
gs
1 -1 sc
2060 -328 tr
90 ro
/MC1_Arial 54 self 0 0 m
(Max. 4.8x)[45 30 27 15 15 30 15 30 27 ] xs
1 -1 sc
gr
gr
2001 112 m
2001 234 l
st
2001 234 m
1991 208 l
2001 208 l
2011 208 l
cp
gs
eofi
gr
0 sj
st
gs
gr
gs
gr
gs
gr
gs
gr
gs
gr
gs
gr
gs
gr
gs
gr
gs
gr
gs
gr
gs
gr
gs
gr
gs
gr
gs
gr
gs
gr
gs
gr
gr
gs
gr
Save0 restore end
showpage
%%EOF
